sim/sim.vcd
$date
	Thu Mar 12 19:40:17 2026
$end
$version
	QuestaSim Version 2019.2
$end
$timescale
	1ps
$end

$scope module tb_top $end
$var reg 1 ! hclk $end
$var reg 1 " hresetn $end
$var reg 1 # hselapb $end
$var reg 32 $ haddr [31:0] $end
$var reg 1 % hwrite $end
$var reg 2 & htrans [1:0] $end
$var reg 32 ' hwdata [31:0] $end
$var reg 32 ( prdata [31:0] $end
$var reg 1 ) hready $end
$var reg 1 * hresp $end
$var reg 32 + hrdata [31:0] $end
$var reg 32 , paddr [31:0] $end
$var reg 32 - pwdata [31:0] $end
$var reg 1 . psel $end
$var reg 1 / penable $end
$var reg 1 0 pwrite $end
$var reg 32 1 captured_hrdata [31:0] $end
$var integer 32 2 pass_count $end
$var integer 32 3 fail_count $end

$scope task do_reset $end
$upscope $end

$scope task ahb_idle $end
$upscope $end

$scope task ahb_write $end
$var reg 32 4 addr [31:0] $end
$var reg 32 5 data [31:0] $end
$upscope $end

$scope task ahb_read $end
$var reg 32 6 addr [31:0] $end
$var reg 32 7 peri_data [31:0] $end
$upscope $end

$scope task ahb_b2b_write $end
$var reg 32 8 addr1 [31:0] $end
$var reg 32 9 data1 [31:0] $end
$var reg 32 : addr2 [31:0] $end
$var reg 32 ; data2 [31:0] $end
$upscope $end

$scope task check $end
$var reg 32 < actual [31:0] $end
$var reg 32 = expected [31:0] $end
$upscope $end

$scope module dut $end
$var parameter 3 > IDLE $end
$var parameter 3 ? READ $end
$var parameter 3 @ RENABLE $end
$var parameter 3 A WWAIT $end
$var parameter 3 B WRITE $end
$var parameter 3 C WENABLE $end
$var parameter 3 D WRITE_P $end
$var parameter 3 E WENABLE_P $end
$var parameter 2 F HTRANS_IDLE $end
$var parameter 2 G HTRANS_BUSY $end
$var parameter 2 H HTRANS_NONSEQ $end
$var parameter 2 I HTRANS_SEQ $end
$var wire 1 J hclk $end
$var wire 1 K hresetn $end
$var wire 1 L hselapb $end
$var wire 1 M haddr [31] $end
$var wire 1 N haddr [30] $end
$var wire 1 O haddr [29] $end
$var wire 1 P haddr [28] $end
$var wire 1 Q haddr [27] $end
$var wire 1 R haddr [26] $end
$var wire 1 S haddr [25] $end
$var wire 1 T haddr [24] $end
$var wire 1 U haddr [23] $end
$var wire 1 V haddr [22] $end
$var wire 1 W haddr [21] $end
$var wire 1 X haddr [20] $end
$var wire 1 Y haddr [19] $end
$var wire 1 Z haddr [18] $end
$var wire 1 [ haddr [17] $end
$var wire 1 \ haddr [16] $end
$var wire 1 ] haddr [15] $end
$var wire 1 ^ haddr [14] $end
$var wire 1 _ haddr [13] $end
$var wire 1 ` haddr [12] $end
$var wire 1 a haddr [11] $end
$var wire 1 b haddr [10] $end
$var wire 1 c haddr [9] $end
$var wire 1 d haddr [8] $end
$var wire 1 e haddr [7] $end
$var wire 1 f haddr [6] $end
$var wire 1 g haddr [5] $end
$var wire 1 h haddr [4] $end
$var wire 1 i haddr [3] $end
$var wire 1 j haddr [2] $end
$var wire 1 k haddr [1] $end
$var wire 1 l haddr [0] $end
$var wire 1 m hwrite $end
$var wire 1 n htrans [1] $end
$var wire 1 o htrans [0] $end
$var wire 1 p hwdata [31] $end
$var wire 1 q hwdata [30] $end
$var wire 1 r hwdata [29] $end
$var wire 1 s hwdata [28] $end
$var wire 1 t hwdata [27] $end
$var wire 1 u hwdata [26] $end
$var wire 1 v hwdata [25] $end
$var wire 1 w hwdata [24] $end
$var wire 1 x hwdata [23] $end
$var wire 1 y hwdata [22] $end
$var wire 1 z hwdata [21] $end
$var wire 1 { hwdata [20] $end
$var wire 1 | hwdata [19] $end
$var wire 1 } hwdata [18] $end
$var wire 1 ~ hwdata [17] $end
$var wire 1 !! hwdata [16] $end
$var wire 1 "! hwdata [15] $end
$var wire 1 #! hwdata [14] $end
$var wire 1 $! hwdata [13] $end
$var wire 1 %! hwdata [12] $end
$var wire 1 &! hwdata [11] $end
$var wire 1 '! hwdata [10] $end
$var wire 1 (! hwdata [9] $end
$var wire 1 )! hwdata [8] $end
$var wire 1 *! hwdata [7] $end
$var wire 1 +! hwdata [6] $end
$var wire 1 ,! hwdata [5] $end
$var wire 1 -! hwdata [4] $end
$var wire 1 .! hwdata [3] $end
$var wire 1 /! hwdata [2] $end
$var wire 1 0! hwdata [1] $end
$var wire 1 1! hwdata [0] $end
$var reg 1 2! hready $end
$var reg 1 3! hresp $end
$var reg 32 4! hrdata [31:0] $end
$var reg 32 5! paddr [31:0] $end
$var reg 32 6! pwdata [31:0] $end
$var reg 1 7! psel $end
$var reg 1 8! penable $end
$var reg 1 9! pwrite $end
$var wire 1 :! prdata [31] $end
$var wire 1 ;! prdata [30] $end
$var wire 1 <! prdata [29] $end
$var wire 1 =! prdata [28] $end
$var wire 1 >! prdata [27] $end
$var wire 1 ?! prdata [26] $end
$var wire 1 @! prdata [25] $end
$var wire 1 A! prdata [24] $end
$var wire 1 B! prdata [23] $end
$var wire 1 C! prdata [22] $end
$var wire 1 D! prdata [21] $end
$var wire 1 E! prdata [20] $end
$var wire 1 F! prdata [19] $end
$var wire 1 G! prdata [18] $end
$var wire 1 H! prdata [17] $end
$var wire 1 I! prdata [16] $end
$var wire 1 J! prdata [15] $end
$var wire 1 K! prdata [14] $end
$var wire 1 L! prdata [13] $end
$var wire 1 M! prdata [12] $end
$var wire 1 N! prdata [11] $end
$var wire 1 O! prdata [10] $end
$var wire 1 P! prdata [9] $end
$var wire 1 Q! prdata [8] $end
$var wire 1 R! prdata [7] $end
$var wire 1 S! prdata [6] $end
$var wire 1 T! prdata [5] $end
$var wire 1 U! prdata [4] $end
$var wire 1 V! prdata [3] $end
$var wire 1 W! prdata [2] $end
$var wire 1 X! prdata [1] $end
$var wire 1 Y! prdata [0] $end
$var reg 3 Z! present_state [2:0] $end
$var reg 3 [! next_state [2:0] $end
$var reg 32 \! haddr_temp [31:0] $end
$var reg 32 ]! hwdata_temp [31:0] $end
$var reg 1 ^! hwrite_temp $end
$var reg 1 _! valid $end
$var reg 1 `! error_resp $end
$var reg 1 a! error_resp_d $end

$scope begin a_penable_after_psel $end
$upscope $end

$scope begin a_hready_low_in_setup $end
$upscope $end

$scope begin a_read_data_propagation $end
$upscope $end

$scope begin a_psel_stable_through_enable $end
$upscope $end
$upscope $end
$upscope $end
$enddefinitions $end
#0
$dumpvars
0!
0"
0#
b0 $
0%
b0 &
b0 '
b0 (
1)
0*
b0 +
b0 ,
b0 -
0.
0/
00
bx 1
12!
03!
b0 4!
b0 5!
b0 6!
07!
08!
09!
b0 Z!
b0 [!
b0 \!
b0 ]!
0^!
0_!
0`!
0a!
bx 4
bx 5
bx 6
bx 7
bx 8
bx 9
bx :
bx ;
bx <
bx =
b0 >
b1 ?
b10 @
b11 A
b100 B
b101 C
b110 D
b111 E
b0 F
b1 G
b10 H
b11 I
b0 2
b0 3
0Y!
0X!
0W!
0V!
0U!
0T!
0S!
0R!
0Q!
0P!
0O!
0N!
0M!
0L!
0K!
0J!
0I!
0H!
0G!
0F!
0E!
0D!
0C!
0B!
0A!
0@!
0?!
0>!
0=!
0<!
0;!
0:!
01!
00!
0/!
0.!
0-!
0,!
0+!
0*!
0)!
0(!
0'!
0&!
0%!
0$!
0#!
0"!
0!!
0~
0}
0|
0{
0z
0y
0x
0w
0v
0u
0t
0s
0r
0q
0p
0o
0n
0m
0l
0k
0j
0i
0h
0g
0f
0e
0d
0c
0b
0a
0`
0_
0^
0]
0\
0[
0Z
0Y
0X
0W
0V
0U
0T
0S
0R
0Q
0P
0O
0N
0M
0L
0K
0J
$end
#5000
1!
1J
#10000
0!
0J
#15000
1!
1J
#16000
1"
1K
#20000
0!
0J
#25000
1!
1J
#30000
0!
0J
#35000
1!
1J
b100000 4
b11011110101011011011111011101111 5
#40000
0!
0J
1#
b100000 $
1%
b10 &
1L
1m
1n
1g
1_!
b11 [!
#45000
1!
1J
b11 Z!
02!
b110 [!
0)
#50000
0!
0J
b11011110101011011011111011101111 '
0#
b0 &
11!
10!
1/!
1.!
1,!
1+!
1*!
1(!
1'!
1&!
1%!
1$!
1"!
1!!
1}
1|
1z
1x
1v
1u
1t
1s
1q
1p
0L
0n
0_!
b11 [!
12!
02!
b100 [!
#55000
1!
1J
b100 Z!
b100000 \!
b11011110101011011011111011101111 ]!
1^!
12!
17!
19!
b100000 5!
b11011110101011011011111011101111 6!
02!
b101 [!
b11011110101011011011111011101111 -
b100000 ,
10
1.
#60000
0!
0J
#65000
1!
1J
b101 Z!
07!
09!
b0 5!
b0 6!
12!
17!
18!
19!
b100000 5!
b11011110101011011011111011101111 6!
b0 [!
1/
1)
#70000
0!
0J
#75000
1!
1J
b0 Z!
07!
08!
09!
b0 5!
b0 6!
b0 -
b0 ,
00
0/
0.
#80000
0!
0J
0%
b0 $
b0 '
01!
00!
0/!
0.!
0,!
0+!
0*!
0(!
0'!
0&!
0%!
0$!
0"!
0!!
0}
0|
0z
0x
0v
0u
0t
0s
0q
0p
0m
0g
#85000
1!
1J
#90000
0!
0J
#95000
1!
1J
b110000 6
b10010001101000101011001111000 7
#100000
0!
0J
1#
b110000 $
b10 &
b10010001101000101011001111000 (
1L
1V!
1U!
1T!
1S!
1P!
1O!
1M!
1K!
1G!
1E!
1D!
1@!
1=!
1n
1h
1g
1_!
b1 [!
#105000
1!
1J
b1 Z!
17!
b110000 5!
02!
b10 [!
0)
b110000 ,
1.
#110000
0!
0J
0#
b0 &
0L
0n
0_!
b1 [!
07!
b0 5!
12!
17!
b110000 5!
02!
b10 [!
#115000
1!
1J
b10 Z!
07!
b0 5!
12!
17!
18!
b110000 5!
b10010001101000101011001111000 4!
b0 [!
b10010001101000101011001111000 +
1/
1)
#120000
0!
0J
#125000
1!
1J
b10010001101000101011001111000 1
b0 Z!
07!
08!
b0 5!
b0 4!
b0 +
b0 ,
0/
0.
#130000
0!
0J
b0 $
b10010001101000101011001111000 <
b10010001101000101011001111000 =
b1 2
0h
0g
#135000
1!
1J
#140000
0!
0J
#145000
1!
1J
b1000000 8
b10101010101010100001000100010001 9
b1010000 :
b10111011101110110010001000100010 ;
#150000
0!
0J
1#
b1000000 $
1%
b10 &
1L
1m
1n
1f
1_!
b11 [!
#155000
1!
1J
b11 Z!
02!
b110 [!
0)
#160000
0!
0J
b10101010101010100001000100010001 '
11!
1-!
1)!
1%!
1~
1|
1z
1x
1v
1t
1r
1p
#165000
1!
1J
b110 Z!
b1000000 \!
b10101010101010100001000100010001 ]!
12!
17!
19!
b1000000 5!
b10101010101010100001000100010001 6!
02!
b111 [!
b10101010101010100001000100010001 -
b1000000 ,
10
1.
#170000
0!
0J
b1010000 $
b10111011101110110010001000100010 '
01!
10!
0-!
1,!
0)!
1(!
0%!
1$!
1!!
1{
1w
1s
1h
b110 [!
07!
09!
b0 5!
b0 6!
12!
17!
19!
b1000000 5!
b10101010101010100001000100010001 6!
02!
b111 [!
#175000
1!
1J
b111 Z!
07!
09!
b0 5!
b0 6!
12!
17!
18!
19!
b1000000 5!
b10101010101010100001000100010001 6!
b11 [!
1/
1)
#180000
0!
0J
#185000
1!
1J
b11 Z!
07!
08!
09!
b0 5!
b0 6!
02!
b110 [!
0)
b0 -
b0 ,
00
0/
0.
#190000
0!
0J
0#
b0 &
0L
0n
0_!
b11 [!
12!
02!
b100 [!
#195000
1!
1J
b100 Z!
b1010000 \!
b10111011101110110010001000100010 ]!
12!
17!
19!
b1010000 5!
b10111011101110110010001000100010 6!
02!
b101 [!
b10111011101110110010001000100010 -
b1010000 ,
10
1.
#200000
0!
0J
#205000
1!
1J
b101 Z!
07!
09!
b0 5!
b0 6!
12!
17!
18!
19!
b1010000 5!
b10111011101110110010001000100010 6!
b0 [!
1/
1)
#210000
0!
0J
#215000
1!
1J
b0 Z!
07!
08!
09!
b0 5!
b0 6!
b0 -
b0 ,
00
0/
0.
#220000
0!
0J
#225000
1!
1J
#230000
0!
0J
b0 '
00!
0,!
0(!
0$!
0!!
0~
0|
0{
0z
0x
0w
0v
0t
0s
0r
0p
#235000
1!
1J
#240000
0!
0J
0%
b0 $
0m
0h
0f
#245000
1!
1J
#250000
0!
0J
#255000
1!
1J
b1100000 4
b11001010111111101011101010111110 5
#260000
0!
0J
1#
b1100000 $
1%
b10 &
1L
1m
1n
1g
1f
1_!
b11 [!
#265000
1!
1J
b11 Z!
02!
b110 [!
0)
#270000
0!
0J
b11001010111111101011101010111110 '
0#
b0 &
10!
1/!
1.!
1-!
1,!
1*!
1(!
1&!
1%!
1$!
1"!
1~
1}
1|
1{
1z
1y
1x
1v
1t
1q
1p
0L
0n
0_!
b11 [!
12!
02!
b100 [!
#275000
1!
1J
b100 Z!
b1100000 \!
b11001010111111101011101010111110 ]!
12!
17!
19!
b1100000 5!
b11001010111111101011101010111110 6!
02!
b101 [!
b11001010111111101011101010111110 -
b1100000 ,
10
1.
#280000
0!
0J
#285000
1!
1J
b101 Z!
07!
09!
b0 5!
b0 6!
12!
17!
18!
19!
b1100000 5!
b11001010111111101011101010111110 6!
b0 [!
1/
1)
#290000
0!
0J
#295000
1!
1J
b0 Z!
07!
08!
09!
b0 5!
b0 6!
b0 -
b0 ,
00
0/
0.
#300000
0!
0J
0%
b0 $
b0 '
00!
0/!
0.!
0-!
0,!
0*!
0(!
0&!
0%!
0$!
0"!
0~
0}
0|
0{
0z
0y
0x
0v
0t
0q
0p
0m
0g
0f
#305000
1!
1J
b1110000 6
b11111110111011011111000000001101 7
#310000
0!
0J
1#
b1110000 $
b10 &
b11111110111011011111000000001101 (
1L
1Y!
1W!
0U!
0T!
0S!
0P!
0O!
1L!
1J!
1I!
1F!
0E!
1C!
1B!
1?!
1>!
1<!
1;!
1:!
1n
1h
1g
1f
1_!
b1 [!
#315000
1!
1J
b1 Z!
17!
b1110000 5!
02!
b10 [!
0)
b1110000 ,
1.
#320000
0!
0J
0#
b0 &
0L
0n
0_!
b1 [!
07!
b0 5!
12!
17!
b1110000 5!
02!
b10 [!
#325000
1!
1J
b10 Z!
07!
b0 5!
12!
17!
18!
b1110000 5!
b11111110111011011111000000001101 4!
b0 [!
b11111110111011011111000000001101 +
1/
1)
#330000
0!
0J
#335000
1!
1J
b11111110111011011111000000001101 1
b0 Z!
07!
08!
b0 5!
b0 4!
b0 +
b0 ,
0/
0.
#340000
0!
0J
b0 $
b11111110111011011111000000001101 <
b11111110111011011111000000001101 =
b10 2
0h
0g
0f
#345000
1!
1J
#350000
0!
0J
#355000
1!
1J
#360000
0!
0J
1#
b10000000 $
1%
b10 &
1L
1m
1n
1e
1_!
b11 [!
#365000
1!
1J
b11 Z!
02!
b110 [!
0)
#370000
0!
0J
0"
0K
b0 Z!
b0 \!
b0 ]!
0^!
b0 [!
12!
b11 [!
1)
#375000
1!
1J
#380000
0!
0J
#385000
1!
1J
#386000
1"
0#
b0 &
0%
b0 $
1K
0L
0m
0e
0n
0_!
b0 [!
#390000
0!
0J
#395000
1!
1J
#400000
0!
0J
#405000
1!
1J
b10010000 4
b1011010010110100101101001011010 5
#410000
0!
0J
1#
b10010000 $
1%
b10 &
1L
1m
1n
1h
1e
1_!
b11 [!
#415000
1!
1J
b11 Z!
02!
b110 [!
0)
#420000
0!
0J
b1011010010110100101101001011010 '
0#
b0 &
10!
1.!
1-!
1+!
1(!
1&!
1%!
1#!
1~
1|
1{
1y
1v
1t
1s
1q
0L
0n
0_!
b11 [!
12!
02!
b100 [!
#425000
1!
1J
b100 Z!
b10010000 \!
b1011010010110100101101001011010 ]!
1^!
12!
17!
19!
b10010000 5!
b1011010010110100101101001011010 6!
02!
b101 [!
b1011010010110100101101001011010 -
b10010000 ,
10
1.
#430000
0!
0J
#435000
1!
1J
b101 Z!
07!
09!
b0 5!
b0 6!
12!
17!
18!
19!
b10010000 5!
b1011010010110100101101001011010 6!
b0 [!
1/
1)
#440000
0!
0J
#445000
1!
1J
b0 Z!
07!
08!
09!
b0 5!
b0 6!
b0 -
b0 ,
00
0/
0.
#450000
0!
0J
0%
b0 $
b0 '
00!
0.!
0-!
0+!
0(!
0&!
0%!
0#!
0~
0|
0{
0y
0v
0t
0s
0q
0m
0h
0e
