sim/sim_uvm.vcd
$date
	Mon Mar 16 15:02:38 2026
$end
$version
	QuestaSim Version 2019.2
$end
$timescale
	1ps
$end

$scope module tb_uvm_top $end
$var reg 1 ! hclk $end

$scope module dut $end
$var parameter 3 " IDLE $end
$var parameter 3 # READ $end
$var parameter 3 $ RENABLE $end
$var parameter 3 % WWAIT $end
$var parameter 3 & WRITE $end
$var parameter 3 ' WENABLE $end
$var parameter 3 ( WRITE_P $end
$var parameter 3 ) WENABLE_P $end
$var parameter 2 * HTRANS_IDLE $end
$var parameter 2 + HTRANS_BUSY $end
$var parameter 2 , HTRANS_NONSEQ $end
$var parameter 2 - HTRANS_SEQ $end
$var wire 1 . hclk $end
$var wire 1 / hresetn $end
$var wire 1 0 hselapb $end
$var wire 1 1 haddr [31] $end
$var wire 1 2 haddr [30] $end
$var wire 1 3 haddr [29] $end
$var wire 1 4 haddr [28] $end
$var wire 1 5 haddr [27] $end
$var wire 1 6 haddr [26] $end
$var wire 1 7 haddr [25] $end
$var wire 1 8 haddr [24] $end
$var wire 1 9 haddr [23] $end
$var wire 1 : haddr [22] $end
$var wire 1 ; haddr [21] $end
$var wire 1 < haddr [20] $end
$var wire 1 = haddr [19] $end
$var wire 1 > haddr [18] $end
$var wire 1 ? haddr [17] $end
$var wire 1 @ haddr [16] $end
$var wire 1 A haddr [15] $end
$var wire 1 B haddr [14] $end
$var wire 1 C haddr [13] $end
$var wire 1 D haddr [12] $end
$var wire 1 E haddr [11] $end
$var wire 1 F haddr [10] $end
$var wire 1 G haddr [9] $end
$var wire 1 H haddr [8] $end
$var wire 1 I haddr [7] $end
$var wire 1 J haddr [6] $end
$var wire 1 K haddr [5] $end
$var wire 1 L haddr [4] $end
$var wire 1 M haddr [3] $end
$var wire 1 N haddr [2] $end
$var wire 1 O haddr [1] $end
$var wire 1 P haddr [0] $end
$var wire 1 Q hwrite $end
$var wire 1 R htrans [1] $end
$var wire 1 S htrans [0] $end
$var wire 1 T hwdata [31] $end
$var wire 1 U hwdata [30] $end
$var wire 1 V hwdata [29] $end
$var wire 1 W hwdata [28] $end
$var wire 1 X hwdata [27] $end
$var wire 1 Y hwdata [26] $end
$var wire 1 Z hwdata [25] $end
$var wire 1 [ hwdata [24] $end
$var wire 1 \ hwdata [23] $end
$var wire 1 ] hwdata [22] $end
$var wire 1 ^ hwdata [21] $end
$var wire 1 _ hwdata [20] $end
$var wire 1 ` hwdata [19] $end
$var wire 1 a hwdata [18] $end
$var wire 1 b hwdata [17] $end
$var wire 1 c hwdata [16] $end
$var wire 1 d hwdata [15] $end
$var wire 1 e hwdata [14] $end
$var wire 1 f hwdata [13] $end
$var wire 1 g hwdata [12] $end
$var wire 1 h hwdata [11] $end
$var wire 1 i hwdata [10] $end
$var wire 1 j hwdata [9] $end
$var wire 1 k hwdata [8] $end
$var wire 1 l hwdata [7] $end
$var wire 1 m hwdata [6] $end
$var wire 1 n hwdata [5] $end
$var wire 1 o hwdata [4] $end
$var wire 1 p hwdata [3] $end
$var wire 1 q hwdata [2] $end
$var wire 1 r hwdata [1] $end
$var wire 1 s hwdata [0] $end
$var reg 1 t hready $end
$var reg 1 u hresp $end
$var reg 32 v hrdata [31:0] $end
$var reg 32 w paddr [31:0] $end
$var reg 32 x pwdata [31:0] $end
$var reg 1 y psel $end
$var reg 1 z penable $end
$var reg 1 { pwrite $end
$var wire 1 | prdata [31] $end
$var wire 1 } prdata [30] $end
$var wire 1 ~ prdata [29] $end
$var wire 1 !! prdata [28] $end
$var wire 1 "! prdata [27] $end
$var wire 1 #! prdata [26] $end
$var wire 1 $! prdata [25] $end
$var wire 1 %! prdata [24] $end
$var wire 1 &! prdata [23] $end
$var wire 1 '! prdata [22] $end
$var wire 1 (! prdata [21] $end
$var wire 1 )! prdata [20] $end
$var wire 1 *! prdata [19] $end
$var wire 1 +! prdata [18] $end
$var wire 1 ,! prdata [17] $end
$var wire 1 -! prdata [16] $end
$var wire 1 .! prdata [15] $end
$var wire 1 /! prdata [14] $end
$var wire 1 0! prdata [13] $end
$var wire 1 1! prdata [12] $end
$var wire 1 2! prdata [11] $end
$var wire 1 3! prdata [10] $end
$var wire 1 4! prdata [9] $end
$var wire 1 5! prdata [8] $end
$var wire 1 6! prdata [7] $end
$var wire 1 7! prdata [6] $end
$var wire 1 8! prdata [5] $end
$var wire 1 9! prdata [4] $end
$var wire 1 :! prdata [3] $end
$var wire 1 ;! prdata [2] $end
$var wire 1 <! prdata [1] $end
$var wire 1 =! prdata [0] $end
$var reg 3 >! present_state [2:0] $end
$var reg 3 ?! next_state [2:0] $end
$var reg 32 @! haddr_temp [31:0] $end
$var reg 32 A! hwdata_temp [31:0] $end
$var reg 1 B! hwrite_temp $end
$var reg 1 C! valid $end
$var reg 1 D! error_resp $end
$var reg 1 E! error_resp_d $end
$upscope $end
$upscope $end
$enddefinitions $end
#0
$dumpvars
0!
1t
0u
b0 v
b0 w
b0 x
0y
0z
0{
b0 >!
b0 ?!
b0 @!
b0 A!
0B!
0C!
0D!
0E!
b0 "
b1 #
b10 $
b11 %
b100 &
b101 '
b110 (
b111 )
b0 *
b1 +
b10 ,
b11 -
0.
0/
00
0P
0O
0N
0M
0L
0K
0J
0I
0H
0G
0F
0E
0D
0C
0B
0A
0@
0?
0>
0=
0<
0;
0:
09
08
07
06
05
04
03
02
01
0Q
0S
0R
0s
0r
0q
0p
0o
0n
0m
0l
0k
0j
0i
0h
0g
0f
0e
0d
0c
0b
0a
0`
0_
0^
0]
0\
0[
0Z
0Y
0X
0W
0V
0U
0T
0=!
0<!
0;!
0:!
09!
08!
07!
06!
05!
04!
03!
02!
01!
00!
0/!
0.!
0-!
0,!
0+!
0*!
0)!
0(!
0'!
0&!
0%!
0$!
0#!
0"!
0!!
0~
0}
0|
$end
#5000
1!
1.
#10000
0!
0.
#15000
1!
1.
#20000
0!
0.
#25000
1!
1.
#30000
0!
0.
#35000
1!
1.
#40000
0!
0.
#45000
1!
1.
#46000
1/
#50000
0!
0.
#55000
1!
1.
#60000
0!
0.
10
1Q
1R
1L
1C!
b11 ?!
#65000
1!
1.
b11 >!
0t
b110 ?!
#70000
0!
0.
00
0R
0C!
b11 ?!
1t
0t
b100 ?!
#75000
1!
1.
b100 >!
b10000 @!
1B!
1t
1y
1{
b10000 w
0t
b101 ?!
#80000
0!
0.
#85000
1!
1.
b101 >!
0y
0{
b0 w
1t
1y
1z
1{
b10000 w
b0 ?!
#90000
0!
0.
#95000
1!
1.
b0 >!
0y
0z
0{
b0 w
#100000
0!
0.
0L
0Q
#105000
1!
1.
#110000
0!
0.
10
1Q
1R
1N
1L
1C!
b11 ?!
#115000
1!
1.
b11 >!
0t
b110 ?!
#120000
0!
0.
1s
1r
1q
1p
1o
1n
1m
1l
1k
1j
1i
1h
1g
1f
1e
1d
1c
1b
1a
1`
1_
1^
1]
1\
1[
1Z
1Y
1X
1W
1V
1U
1T
00
0R
0C!
b11 ?!
1t
0t
b100 ?!
#125000
1!
1.
b100 >!
b10100 @!
b11111111111111111111111111111111 A!
1t
1y
1{
b10100 w
b11111111111111111111111111111111 x
0t
b101 ?!
#130000
0!
0.
#135000
1!
1.
b101 >!
0y
0{
b0 w
b0 x
1t
1y
1z
1{
b10100 w
b11111111111111111111111111111111 x
b0 ?!
#140000
0!
0.
#145000
1!
1.
b0 >!
0y
0z
0{
b0 w
b0 x
#150000
0!
0.
0s
0r
0q
0p
0o
0n
0m
0l
0k
0j
0i
0h
0g
0f
0e
0d
0c
0b
0a
0`
0_
0^
0]
0\
0[
0Z
0Y
0X
0W
0V
0U
0T
0N
0L
0Q
#155000
1!
1.
#160000
0!
0.
10
1Q
1R
1M
1L
1C!
b11 ?!
#165000
1!
1.
b11 >!
0t
b110 ?!
#170000
0!
0.
1r
1p
1n
1l
1j
1h
1f
1d
1b
1`
1^
1\
1Z
1X
1V
1T
00
0R
0C!
b11 ?!
1t
0t
b100 ?!
#175000
1!
1.
b100 >!
b11000 @!
b10101010101010101010101010101010 A!
1t
1y
1{
b11000 w
b10101010101010101010101010101010 x
0t
b101 ?!
#180000
0!
0.
#185000
1!
1.
b101 >!
0y
0{
b0 w
b0 x
1t
1y
1z
1{
b11000 w
b10101010101010101010101010101010 x
b0 ?!
#190000
0!
0.
#195000
1!
1.
b0 >!
0y
0z
0{
b0 w
b0 x
#200000
0!
0.
0r
0p
0n
0l
0j
0h
0f
0d
0b
0`
0^
0\
0Z
0X
0V
0T
0M
0L
0Q
#205000
1!
1.
#210000
0!
0.
10
1Q
1R
1N
1M
1L
1C!
b11 ?!
#215000
1!
1.
b11 >!
0t
b110 ?!
#220000
0!
0.
1s
1q
1o
1m
1k
1i
1g
1e
1c
1a
1_
1]
1[
1Y
1W
1U
00
0R
0C!
b11 ?!
1t
0t
b100 ?!
#225000
1!
1.
b100 >!
b11100 @!
b1010101010101010101010101010101 A!
1t
1y
1{
b11100 w
b1010101010101010101010101010101 x
0t
b101 ?!
#230000
0!
0.
#235000
1!
1.
b101 >!
0y
0{
b0 w
b0 x
1t
1y
1z
1{
b11100 w
b1010101010101010101010101010101 x
b0 ?!
#240000
0!
0.
#245000
1!
1.
b0 >!
0y
0z
0{
b0 w
b0 x
#250000
0!
0.
0s
0q
0o
0m
0k
0i
0g
0e
0c
0a
0_
0]
0[
0Y
0W
0U
0N
0M
0L
0Q
#255000
1!
1.
#260000
0!
0.
10
1R
1L
1C!
b1 ?!
#265000
1!
1.
b1 >!
1y
b10000 w
0t
b10 ?!
#270000
0!
0.
00
0R
0C!
b1 ?!
0y
b0 w
1t
1y
b10000 w
0t
b10 ?!
#275000
1!
1.
b10 >!
0y
b0 w
1t
1y
1z
b10000 w
b0 ?!
#280000
0!
0.
#285000
1!
1.
b0 >!
0y
0z
b0 w
#290000
0!
0.
0L
#295000
1!
1.
#300000
0!
0.
10
1R
1N
1L
1C!
b1 ?!
#305000
1!
1.
b1 >!
1y
b10100 w
0t
b10 ?!
#310000
0!
0.
00
0R
0C!
b1 ?!
0y
b0 w
1t
1y
b10100 w
0t
b10 ?!
#315000
1!
1.
b10 >!
1=!
1<!
1;!
1:!
19!
18!
17!
16!
15!
14!
13!
12!
11!
10!
1/!
1.!
1-!
1,!
1+!
1*!
1)!
1(!
1'!
1&!
1%!
1$!
1#!
1"!
1!!
1~
1}
1|
0y
b0 w
1t
1y
1z
b10100 w
b11111111111111111111111111111111 v
b0 ?!
#320000
0!
0.
#325000
1!
1.
b0 >!
0y
0z
b0 w
b0 v
#330000
0!
0.
0N
0L
#335000
1!
1.
0=!
0<!
0;!
0:!
09!
08!
07!
06!
05!
04!
03!
02!
01!
00!
0/!
0.!
0-!
0,!
0+!
0*!
0)!
0(!
0'!
0&!
0%!
0$!
0#!
0"!
0!!
0~
0}
0|
#340000
0!
0.
10
1R
1M
1L
1C!
b1 ?!
#345000
1!
1.
b1 >!
1y
b11000 w
0t
b10 ?!
#350000
0!
0.
00
0R
0C!
b1 ?!
0y
b0 w
1t
1y
b11000 w
0t
b10 ?!
#355000
1!
1.
b10 >!
1<!
1:!
18!
16!
14!
12!
10!
1.!
1,!
1*!
1(!
1&!
1$!
1"!
1~
1|
0y
b0 w
1t
1y
1z
b11000 w
b10101010101010101010101010101010 v
b0 ?!
#360000
0!
0.
#365000
1!
1.
b0 >!
0y
0z
b0 w
b0 v
#370000
0!
0.
0M
0L
#375000
1!
1.
0<!
0:!
08!
06!
04!
02!
00!
0.!
0,!
0*!
0(!
0&!
0$!
0"!
0~
0|
#380000
0!
0.
10
1R
1N
1M
1L
1C!
b1 ?!
#385000
1!
1.
b1 >!
1y
b11100 w
0t
b10 ?!
#390000
0!
0.
00
0R
0C!
b1 ?!
0y
b0 w
1t
1y
b11100 w
0t
b10 ?!
#395000
1!
1.
b10 >!
1=!
1;!
19!
17!
15!
13!
11!
1/!
1-!
1+!
1)!
1'!
1%!
1#!
1!!
1}
0y
b0 w
1t
1y
1z
b11100 w
b1010101010101010101010101010101 v
b0 ?!
#400000
0!
0.
#405000
1!
1.
b0 >!
0y
0z
b0 w
b0 v
#410000
0!
0.
0N
0M
0L
#415000
1!
1.
0=!
0;!
09!
07!
05!
03!
01!
0/!
0-!
0+!
0)!
0'!
0%!
0#!
0!!
0}
#420000
0!
0.
10
1R
1N
1L
1J
1C!
b1 ?!
#425000
1!
1.
b1 >!
1y
b1010100 w
0t
b10 ?!
#430000
0!
0.
00
0R
0C!
b1 ?!
0y
b0 w
1t
1y
b1010100 w
0t
b10 ?!
#435000
1!
1.
b10 >!
1=!
1;!
19!
1-!
1+!
1(!
1&!
1%!
1#!
1~
1|
0y
b0 w
1t
1y
1z
b1010100 w
b10100101101001010000000000010101 v
b0 ?!
#440000
0!
0.
#445000
1!
1.
b0 >!
0y
0z
b0 w
b0 v
#450000
0!
0.
0N
0L
0J
#455000
1!
1.
0=!
0;!
09!
0-!
0+!
0(!
0&!
0%!
0#!
0~
0|
#460000
0!
0.
#465000
1!
1.
#470000
0!
0.
#475000
1!
1.
#480000
0!
0.
#485000
1!
1.
#490000
0!
0.
10
1Q
1R
1M
1K
1J
1C!
b11 ?!
#495000
1!
1.
b11 >!
0t
b110 ?!
#500000
0!
0.
1s
1r
1q
1p
1o
1i
1f
1e
1d
1c
1b
1_
1\
1[
1Y
1X
1W
1V
1T
00
0R
0C!
b11 ?!
1t
0t
b100 ?!
#505000
1!
1.
b100 >!
b1101000 @!
b10111101100100111110010000011111 A!
1t
1y
1{
b1101000 w
b10111101100100111110010000011111 x
0t
b101 ?!
#510000
0!
0.
#515000
1!
1.
b101 >!
0y
0{
b0 w
b0 x
1t
1y
1z
1{
b1101000 w
b10111101100100111110010000011111 x
b0 ?!
#520000
0!
0.
#525000
1!
1.
b0 >!
0y
0z
0{
b0 w
b0 x
#530000
0!
0.
0s
0r
0q
0p
0o
0i
0f
0e
0d
0c
0b
0_
0\
0[
0Y
0X
0W
0V
0T
0M
0K
0J
0Q
#535000
1!
1.
#540000
0!
0.
#545000
1!
1.
#550000
0!
0.
#555000
1!
1.
#560000
0!
0.
#565000
1!
1.
#570000
0!
0.
10
1Q
1R
1M
1I
1C!
b11 ?!
#575000
1!
1.
b11 >!
0t
b110 ?!
#580000
0!
0.
1q
1p
1o
1n
1m
1k
1e
1c
1b
1a
1]
1[
1Z
00
0R
0C!
b11 ?!
1t
0t
b100 ?!
#585000
1!
1.
b100 >!
b10001000 @!
b11010001110100000101111100 A!
1t
1y
1{
b10001000 w
b11010001110100000101111100 x
0t
b101 ?!
#590000
0!
0.
#595000
1!
1.
b101 >!
0y
0{
b0 w
b0 x
1t
1y
1z
1{
b10001000 w
b11010001110100000101111100 x
b0 ?!
#600000
0!
0.
#605000
1!
1.
b0 >!
0y
0z
0{
b0 w
b0 x
#610000
0!
0.
0q
0p
0o
0n
0m
0k
0e
0c
0b
0a
0]
0[
0Z
0M
0I
0Q
#615000
1!
1.
#620000
0!
0.
#625000
1!
1.
#630000
0!
0.
#635000
1!
1.
#640000
0!
0.
#645000
1!
1.
#650000
0!
0.
#655000
1!
1.
#660000
0!
0.
#665000
1!
1.
#670000
0!
0.
#675000
1!
1.
#680000
0!
0.
#685000
1!
1.
#690000
0!
0.
#695000
1!
1.
#700000
0!
0.
10
1Q
1R
1M
1L
1J
1C!
b11 ?!
#705000
1!
1.
b11 >!
0t
b110 ?!
#710000
0!
0.
1o
1n
1l
1j
1i
1h
1c
1`
1]
1\
1Y
1X
1U
1T
00
0R
0C!
b11 ?!
1t
0t
b100 ?!
#715000
1!
1.
b100 >!
b1011000 @!
b11001100110010010000111010110000 A!
1t
1y
1{
b1011000 w
b11001100110010010000111010110000 x
0t
b101 ?!
#720000
0!
0.
#725000
1!
1.
b101 >!
0y
0{
b0 w
b0 x
1t
1y
1z
1{
b1011000 w
b11001100110010010000111010110000 x
b0 ?!
#730000
0!
0.
#735000
1!
1.
b0 >!
0y
0z
0{
b0 w
b0 x
#740000
0!
0.
0o
0n
0l
0j
0i
0h
0c
0`
0]
0\
0Y
0X
0U
0T
0M
0L
0J
0Q
#745000
1!
1.
#750000
0!
0.
#755000
1!
1.
#760000
0!
0.
#765000
1!
1.
#770000
0!
0.
#775000
1!
1.
#780000
0!
0.
#785000
1!
1.
#790000
0!
0.
#795000
1!
1.
#800000
0!
0.
#805000
1!
1.
#810000
0!
0.
#815000
1!
1.
#820000
0!
0.
10
1Q
1R
1L
1C!
b11 ?!
#825000
1!
1.
b11 >!
0t
b110 ?!
#830000
0!
0.
1q
1p
1o
1m
1k
1i
1g
1e
1c
1_
1]
1\
1[
1W
1V
1U
00
0R
0C!
b11 ?!
1t
0t
b100 ?!
#835000
1!
1.
b100 >!
b10000 @!
b1110001110100010101010101011100 A!
1t
1y
1{
b10000 w
b1110001110100010101010101011100 x
0t
b101 ?!
#840000
0!
0.
#845000
1!
1.
b101 >!
0y
0{
b0 w
b0 x
1t
1y
1z
1{
b10000 w
b1110001110100010101010101011100 x
b0 ?!
#850000
0!
0.
#855000
1!
1.
b0 >!
0y
0z
0{
b0 w
b0 x
#860000
0!
0.
0q
0p
0o
0m
0k
0i
0g
0e
0c
0_
0]
0\
0[
0W
0V
0U
0L
0Q
#865000
1!
1.
#870000
0!
0.
#875000
1!
1.
#880000
0!
0.
#885000
1!
1.
#890000
0!
0.
#895000
1!
1.
#900000
0!
0.
#905000
1!
1.
#910000
0!
0.
10
1Q
1R
1N
1M
1K
1J
1I
1C!
b11 ?!
#915000
1!
1.
b11 >!
0t
b110 ?!
#920000
0!
0.
1s
1r
1q
1p
1o
1m
1l
1k
1i
1h
1g
1f
1c
1_
1^
1[
1Y
1X
1W
1V
1U
00
0R
0C!
b11 ?!
1t
0t
b100 ?!
#925000
1!
1.
b100 >!
b11101100 @!
b1111101001100010011110111011111 A!
1t
1y
1{
b11101100 w
b1111101001100010011110111011111 x
0t
b101 ?!
#930000
0!
0.
#935000
1!
1.
b101 >!
0y
0{
b0 w
b0 x
1t
1y
1z
1{
b11101100 w
b1111101001100010011110111011111 x
b0 ?!
#940000
0!
0.
#945000
1!
1.
b0 >!
0y
0z
0{
b0 w
b0 x
#950000
0!
0.
0s
0r
0q
0p
0o
0m
0l
0k
0i
0h
0g
0f
0c
0_
0^
0[
0Y
0X
0W
0V
0U
0N
0M
0K
0J
0I
0Q
#955000
1!
1.
#960000
0!
0.
10
1Q
1R
1N
1L
1K
1J
1C!
b11 ?!
#965000
1!
1.
b11 >!
0t
b110 ?!
#970000
0!
0.
1p
1n
1i
1g
1e
1d
1b
1`
1]
1Y
1X
1W
1T
00
0R
0C!
b11 ?!
1t
0t
b100 ?!
#975000
1!
1.
b100 >!
b1110100 @!
b10011100010010101101010000101000 A!
1t
1y
1{
b1110100 w
b10011100010010101101010000101000 x
0t
b101 ?!
#980000
0!
0.
#985000
1!
1.
b101 >!
0y
0{
b0 w
b0 x
1t
1y
1z
1{
b1110100 w
b10011100010010101101010000101000 x
b0 ?!
#990000
0!
0.
#995000
1!
1.
b0 >!
0y
0z
0{
b0 w
b0 x
#1000000
0!
0.
0p
0n
0i
0g
0e
0d
0b
0`
0]
0Y
0X
0W
0T
0N
0L
0K
0J
0Q
#1005000
1!
1.
#1010000
0!
0.
#1015000
1!
1.
#1020000
0!
0.
#1025000
1!
1.
#1030000
0!
0.
#1035000
1!
1.
#1040000
0!
0.
#1045000
1!
1.
#1050000
0!
0.
#1055000
1!
1.
#1060000
0!
0.
#1065000
1!
1.
#1070000
0!
0.
#1075000
1!
1.
#1080000
0!
0.
#1085000
1!
1.
#1090000
0!
0.
#1095000
1!
1.
#1100000
0!
0.
10
1Q
1R
1K
1J
1C!
b11 ?!
#1105000
1!
1.
b11 >!
0t
b110 ?!
#1110000
0!
0.
1r
1q
1o
1k
1j
1h
1g
1f
1d
1`
1^
1]
1\
1X
00
0R
0C!
b11 ?!
1t
0t
b100 ?!
#1115000
1!
1.
b100 >!
b1100000 @!
b1000111010001011101100010110 A!
1t
1y
1{
b1100000 w
b1000111010001011101100010110 x
0t
b101 ?!
#1120000
0!
0.
#1125000
1!
1.
b101 >!
0y
0{
b0 w
b0 x
1t
1y
1z
1{
b1100000 w
b1000111010001011101100010110 x
b0 ?!
#1130000
0!
0.
#1135000
1!
1.
b0 >!
0y
0z
0{
b0 w
b0 x
#1140000
0!
0.
0r
0q
0o
0k
0j
0h
0g
0f
0d
0`
0^
0]
0\
0X
0K
0J
0Q
#1145000
1!
1.
#1150000
0!
0.
10
1Q
1R
1L
1J
1C!
b11 ?!
#1155000
1!
1.
b11 >!
0t
b110 ?!
#1160000
0!
0.
1r
1p
1o
1m
1l
1h
1e
1d
1a
1^
1]
1\
1Z
1V
1U
1T
00
0R
0C!
b11 ?!
1t
0t
b100 ?!
#1165000
1!
1.
b100 >!
b1010000 @!
b11100010111001001100100011011010 A!
1t
1y
1{
b1010000 w
b11100010111001001100100011011010 x
0t
b101 ?!
#1170000
0!
0.
#1175000
1!
1.
b101 >!
0y
0{
b0 w
b0 x
1t
1y
1z
1{
b1010000 w
b11100010111001001100100011011010 x
b0 ?!
#1180000
0!
0.
#1185000
1!
1.
b0 >!
0y
0z
0{
b0 w
b0 x
#1190000
0!
0.
0r
0p
0o
0m
0l
0h
0e
0d
0a
0^
0]
0\
0Z
0V
0U
0T
0L
0J
0Q
#1195000
1!
1.
#1200000
0!
0.
#1205000
1!
1.
#1210000
0!
0.
#1215000
1!
1.
#1220000
0!
0.
#1225000
1!
1.
#1230000
0!
0.
#1235000
1!
1.
#1240000
0!
0.
#1245000
1!
1.
#1250000
0!
0.
#1255000
1!
1.
#1260000
0!
0.
#1265000
1!
1.
#1270000
0!
0.
#1275000
1!
1.
#1280000
0!
0.
#1285000
1!
1.
#1290000
0!
0.
10
1Q
1R
1J
1I
1C!
b11 ?!
#1295000
1!
1.
b11 >!
0t
b110 ?!
#1300000
0!
0.
1s
1r
1p
1o
1n
1l
1k
1j
1i
1h
1f
1d
1a
1_
1]
1W
1V
1U
1T
00
0R
0C!
b11 ?!
1t
0t
b100 ?!
#1305000
1!
1.
b100 >!
b11000000 @!
b11110000010101001010111110111011 A!
1t
1y
1{
b11000000 w
b11110000010101001010111110111011 x
0t
b101 ?!
#1310000
0!
0.
#1315000
1!
1.
b101 >!
0y
0{
b0 w
b0 x
1t
1y
1z
1{
b11000000 w
b11110000010101001010111110111011 x
b0 ?!
#1320000
0!
0.
#1325000
1!
1.
b0 >!
0y
0z
0{
b0 w
b0 x
#1330000
0!
0.
0s
0r
0p
0o
0n
0l
0k
0j
0i
0h
0f
0d
0a
0_
0]
0W
0V
0U
0T
0J
0I
0Q
#1335000
1!
1.
#1340000
0!
0.
#1345000
1!
1.
#1350000
0!
0.
#1355000
1!
1.
#1360000
0!
0.
10
1Q
1R
1N
1M
1L
1K
1I
1C!
b11 ?!
#1365000
1!
1.
b11 >!
0t
b110 ?!
#1370000
0!
0.
1q
1o
1m
1k
1j
1i
1h
1g
1e
1a
1`
1_
1^
1Z
1X
1U
00
0R
0C!
b11 ?!
1t
0t
b100 ?!
#1375000
1!
1.
b100 >!
b10111100 @!
b1001010001111000101111101010100 A!
1t
1y
1{
b10111100 w
b1001010001111000101111101010100 x
0t
b101 ?!
#1380000
0!
0.
#1385000
1!
1.
b101 >!
0y
0{
b0 w
b0 x
1t
1y
1z
1{
b10111100 w
b1001010001111000101111101010100 x
b0 ?!
#1390000
0!
0.
#1395000
1!
1.
b0 >!
0y
0z
0{
b0 w
b0 x
#1400000
0!
0.
0q
0o
0m
0k
0j
0i
0h
0g
0e
0a
0`
0_
0^
0Z
0X
0U
0N
0M
0L
0K
0I
0Q
#1405000
1!
1.
#1410000
0!
0.
#1415000
1!
1.
#1420000
0!
0.
#1425000
1!
1.
#1430000
0!
0.
#1435000
1!
1.
#1440000
0!
0.
#1445000
1!
1.
#1450000
0!
0.
#1455000
1!
1.
#1460000
0!
0.
#1465000
1!
1.
#1470000
0!
0.
#1475000
1!
1.
#1480000
0!
0.
#1485000
1!
1.
#1490000
0!
0.
#1495000
1!
1.
#1500000
0!
0.
10
1R
1N
1M
1J
1I
1C!
b1 ?!
#1505000
1!
1.
b1 >!
1y
b11001100 w
0t
b10 ?!
#1510000
0!
0.
00
0R
0C!
b1 ?!
0y
b0 w
1t
1y
b11001100 w
0t
b10 ?!
#1515000
1!
1.
b10 >!
1=!
1<!
19!
18!
1-!
1+!
1(!
1&!
1%!
1#!
1~
1|
0y
b0 w
1t
1y
1z
b11001100 w
b10100101101001010000000000110011 v
b0 ?!
#1520000
0!
0.
#1525000
1!
1.
b0 >!
0y
0z
b0 w
b0 v
#1530000
0!
0.
0N
0M
0J
0I
#1535000
1!
1.
0=!
0<!
09!
08!
0-!
0+!
0(!
0&!
0%!
0#!
0~
0|
#1540000
0!
0.
#1545000
1!
1.
#1550000
0!
0.
#1555000
1!
1.
#1560000
0!
0.
#1565000
1!
1.
#1570000
0!
0.
10
1R
1N
1M
1L
1J
1C!
b1 ?!
#1575000
1!
1.
b1 >!
1y
b1011100 w
0t
b10 ?!
#1580000
0!
0.
00
0R
0C!
b1 ?!
0y
b0 w
1t
1y
b1011100 w
0t
b10 ?!
#1585000
1!
1.
b10 >!
1=!
1<!
1;!
19!
1-!
1+!
1(!
1&!
1%!
1#!
1~
1|
0y
b0 w
1t
1y
1z
b1011100 w
b10100101101001010000000000010111 v
b0 ?!
#1590000
0!
0.
#1595000
1!
1.
b0 >!
0y
0z
b0 w
b0 v
#1600000
0!
0.
0N
0M
0L
0J
#1605000
1!
1.
0=!
0<!
0;!
09!
0-!
0+!
0(!
0&!
0%!
0#!
0~
0|
#1610000
0!
0.
10
1R
1M
1C!
b1 ?!
#1615000
1!
1.
b1 >!
1y
b1000 w
0t
b10 ?!
#1620000
0!
0.
00
0R
0C!
b1 ?!
0y
b0 w
1t
1y
b1000 w
0t
b10 ?!
#1625000
1!
1.
b10 >!
1<!
1-!
1+!
1(!
1&!
1%!
1#!
1~
1|
0y
b0 w
1t
1y
1z
b1000 w
b10100101101001010000000000000010 v
b0 ?!
#1630000
0!
0.
#1635000
1!
1.
b0 >!
0y
0z
b0 w
b0 v
#1640000
0!
0.
0M
#1645000
1!
1.
0<!
0-!
0+!
0(!
0&!
0%!
0#!
0~
0|
#1650000
0!
0.
#1655000
1!
1.
#1660000
0!
0.
#1665000
1!
1.
#1670000
0!
0.
10
1Q
1R
1N
1M
1L
1J
1I
1C!
b11 ?!
#1675000
1!
1.
b11 >!
0t
b110 ?!
#1680000
0!
0.
1s
1p
1o
1m
1i
1h
1f
1e
1d
1c
1a
1^
1Y
1W
1U
00
0R
0C!
b11 ?!
1t
0t
b100 ?!
#1685000
1!
1.
b100 >!
b11011100 @!
b1010100001001011110110001011001 A!
1t
1y
1{
b11011100 w
b1010100001001011110110001011001 x
0t
b101 ?!
#1690000
0!
0.
#1695000
1!
1.
b101 >!
0y
0{
b0 w
b0 x
1t
1y
1z
1{
b11011100 w
b1010100001001011110110001011001 x
b0 ?!
#1700000
0!
0.
#1705000
1!
1.
b0 >!
0y
0z
0{
b0 w
b0 x
#1710000
0!
0.
0s
0p
0o
0m
0i
0h
0f
0e
0d
0c
0a
0^
0Y
0W
0U
0N
0M
0L
0J
0I
0Q
#1715000
1!
1.
#1720000
0!
0.
#1725000
1!
1.
#1730000
0!
0.
10
1R
1N
1M
1L
1C!
b1 ?!
#1735000
1!
1.
b1 >!
1y
b11100 w
0t
b10 ?!
#1740000
0!
0.
00
0R
0C!
b1 ?!
0y
b0 w
1t
1y
b11100 w
0t
b10 ?!
#1745000
1!
1.
b10 >!
1=!
1;!
19!
17!
15!
13!
11!
1/!
1-!
1+!
1)!
1'!
1%!
1#!
1!!
1}
0y
b0 w
1t
1y
1z
b11100 w
b1010101010101010101010101010101 v
b0 ?!
#1750000
0!
0.
#1755000
1!
1.
b0 >!
0y
0z
b0 w
b0 v
#1760000
0!
0.
0N
0M
0L
#1765000
1!
1.
0=!
0;!
09!
07!
05!
03!
01!
0/!
0-!
0+!
0)!
0'!
0%!
0#!
0!!
0}
#1770000
0!
0.
#1775000
1!
1.
#1780000
0!
0.
#1785000
1!
1.
#1790000
0!
0.
#1795000
1!
1.
#1800000
0!
0.
#1805000
1!
1.
#1810000
0!
0.
#1815000
1!
1.
#1820000
0!
0.
#1825000
1!
1.
#1830000
0!
0.
#1835000
1!
1.
#1840000
0!
0.
10
1Q
1R
1K
1C!
b11 ?!
#1845000
1!
1.
b11 >!
0t
b110 ?!
#1850000
0!
0.
1r
1p
1o
1k
1i
1h
1f
1c
1`
1X
1W
1U
1T
00
0R
0C!
b11 ?!
1t
0t
b100 ?!
#1855000
1!
1.
b100 >!
b100000 @!
b11011000000010010010110100011010 A!
1t
1y
1{
b100000 w
b11011000000010010010110100011010 x
0t
b101 ?!
#1860000
0!
0.
#1865000
1!
1.
b101 >!
0y
0{
b0 w
b0 x
1t
1y
1z
1{
b100000 w
b11011000000010010010110100011010 x
b0 ?!
#1870000
0!
0.
#1875000
1!
1.
b0 >!
0y
0z
0{
b0 w
b0 x
#1880000
0!
0.
0r
0p
0o
0k
0i
0h
0f
0c
0`
0X
0W
0U
0T
0K
0Q
#1885000
1!
1.
#1890000
0!
0.
#1895000
1!
1.
#1900000
0!
0.
#1905000
1!
1.
#1910000
0!
0.
10
1R
1M
1L
1K
1J
1C!
b1 ?!
#1915000
1!
1.
b1 >!
1y
b1111000 w
0t
b10 ?!
#1920000
0!
0.
00
0R
0C!
b1 ?!
0y
b0 w
1t
1y
b1111000 w
0t
b10 ?!
