sim/transcript
# vsim -c -coverage tb_uvm_top "+UVM_TESTNAME=bridge_rand_test" "+UVM_VERBOSITY=UVM_MEDIUM" -voptargs="+acc" -do "run -all; coverage save -codeAll bridge.ucdb; quit" 
# Start time: 14:34:44 on Mar 16,2026
# ** Note: (vsim-8009) Loading existing optimized design _opt
# //  Questa Sim-64
# //  Version 2019.2 linux_x86_64 Apr 16 2019
# //
# //  Copyright 1991-2019 Mentor Graphics Corporation
# //  All Rights Reserved.
# //
# //  QuestaSim and its associated documentation contain trade
# //  secrets and commercial or financial information that are the property of
# //  Mentor Graphics Corporation and are privileged, confidential,
# //  and exempt from disclosure under the Freedom of Information Act,
# //  5 U.S.C. Section 552. Furthermore, this information
# //  is prohibited from disclosure under the Trade Secrets Act,
# //  18 U.S.C. Section 1905.
# //
# Loading sv_std.std
# Loading work.ahb_apb_if(fast)
# Loading mtiUvm.uvm_pkg
# Loading work.ahb_apb_txn_pkg(fast)
# Loading work.apb_agent_pkg(fast)
# Loading work.ahb_agent_pkg(fast)
# Loading work.bridge_env_pkg(fast)
# Loading work.bridge_test_pkg(fast)
# Loading work.tb_uvm_top_sv_unit(fast)
# Loading mtiUvm.questa_uvm_pkg(fast)
# Loading work.tb_uvm_top(fast)
# Loading work.ahb_apb_if(fast)
# Loading work.ahb_apb_bridge(fast)
# Loading /home/cad/eda/Questa_2019/questasim/uvm-1.1d/linux_x86_64/uvm_dpi.so
# ** Warning: (vsim-8634) Code was not compiled with coverage options.
# run -all
# ----------------------------------------------------------------
# UVM-1.1d
# (C) 2007-2013 Mentor Graphics Corporation
# (C) 2007-2013 Cadence Design Systems, Inc.
# (C) 2006-2013 Synopsys, Inc.
# (C) 2011-2013 Cypress Semiconductor Corp.
# ----------------------------------------------------------------
# 
#   ***********       IMPORTANT RELEASE NOTES         ************
# 
#   You are using a version of the UVM library that has been compiled
#   with `UVM_NO_DEPRECATED undefined.
#   See http://www.eda.org/svdb/view.php?id=3313 for more details.
# 
#   You are using a version of the UVM library that has been compiled
#   with `UVM_OBJECT_MUST_HAVE_CONSTRUCTOR undefined.
#   See http://www.eda.org/svdb/view.php?id=3770 for more details.
# 
#       (Specify +UVM_NO_RELNOTES to turn off this notice)
# 
# UVM_INFO verilog_src/questa_uvm_pkg-1.2/src/questa_uvm_pkg.sv(277) @ 0: reporter [Questa UVM] QUESTA_UVM-1.2.3
# UVM_INFO verilog_src/questa_uvm_pkg-1.2/src/questa_uvm_pkg.sv(278) @ 0: reporter [Questa UVM]  questa_uvm::init(+struct)
# UVM_INFO @ 0: reporter [RNTST] Running test bridge_rand_test...
# UVM_WARNING @ 0: reporter [TYPDUP] Original and override type arguments are identical: ahb_agent
# UVM_WARNING @ 0: reporter [TYPDUP] Original and override type arguments are identical: apb_agent
# UVM_INFO @ 0: reporter [UVMTOP] UVM testbench topology:
# ------------------------------------------------------------------
# Name                       Type                        Size  Value
# ------------------------------------------------------------------
# uvm_test_top               bridge_rand_test            -     @471 
#   env                      bridge_env                  -     @478 
#     ahb_agnt               ahb_agent                   -     @485 
#       ap                   uvm_analysis_port           -     @529 
#       drv                  ahb_driver                  -     @646 
#         rsp_port           uvm_analysis_port           -     @661 
#         seq_item_port      uvm_seq_item_pull_port      -     @653 
#       mon                  ahb_monitor                 -     @522 
#         ap                 uvm_analysis_port           -     @670 
#       seqr                 ahb_sequencer               -     @537 
#         rsp_export         uvm_analysis_export         -     @544 
#         seq_item_export    uvm_seq_item_pull_imp       -     @638 
#         arbitration_queue  array                       0     -    
#         lock_queue         array                       0     -    
#         num_last_reqs      integral                    32    'd1  
#         num_last_rsps      integral                    32    'd1  
#     apb_agnt               apb_agent                   -     @492 
#       ap                   uvm_analysis_port           -     @699 
#       mon                  apb_monitor                 -     @685 
#         ap                 uvm_analysis_port           -     @707 
#       slave                apb_slave_model             -     @692 
#     coverage               bridge_coverage             -     @506 
#       analysis_imp         uvm_analysis_imp            -     @513 
#     scoreboard             bridge_scoreboard           -     @499 
#       ahb_fifo             uvm_tlm_analysis_fifo #(T)  -     @717 
#         analysis_export    uvm_analysis_imp            -     @756 
#         get_ap             uvm_analysis_port           -     @748 
#         get_peek_export    uvm_get_peek_imp            -     @732 
#         put_ap             uvm_analysis_port           -     @740 
#         put_export         uvm_put_imp                 -     @724 
#       apb_fifo             uvm_tlm_analysis_fifo #(T)  -     @764 
#         analysis_export    uvm_analysis_imp            -     @803 
#         get_ap             uvm_analysis_port           -     @795 
#         get_peek_export    uvm_get_peek_imp            -     @779 
#         put_ap             uvm_analysis_port           -     @787 
#         put_export         uvm_put_imp                 -     @771 
# ------------------------------------------------------------------
# 
# UVM_INFO ../tb/tests/bridge_test_pkg.sv(493) @ 0: uvm_test_top [RAND_TEST] Starting random test
# UVM_INFO ../tb/tests/bridge_test_pkg.sv(280) @ 0: uvm_test_top.env.ahb_agnt.seqr@@rseq [RAND_SEQ] Random sequence: count=100
# UVM_INFO ../tb/top/tb_uvm_top.sv(128) @ 46000: reporter [TOP] Reset released - starting UVM
# [TOP MON] t=85000 psel=1 penable=0 paddr=0x000000bc pwdata=0x0d429413
# UVM_INFO ../tb/agent_ahb/ahb_agent_pkg.sv(251) @ 86000: uvm_test_top.env.ahb_agnt.mon [AHB_MON] Captured: TXN: AHB_WRITE addr=0x000000bc data=0x0d429413 trans=HTRANS_NONSEQ resp=HRESP_OKAY delay=0
# UVM_INFO ../tb/agent_apb/apb_agent_pkg.sv(123) @ 95000: uvm_test_top.env.apb_agnt.mon [APB_MON] Captured: TXN: AHB_WRITE addr=0x000000bc data=0x0d429413 trans=HTRANS_NONSEQ resp=HRESP_OKAY delay=0
# [TOP MON] t=95000 psel=1 penable=1 paddr=0x000000bc pwdata=0x0d429413
# UVM_INFO ../tb/env/bridge_env_pkg.sv(85) @ 95000: uvm_test_top.env.scoreboard [SBOARD] [PASS] AHB_WRITE addr=0x000000bc data=0x0d429413
# [TOP MON] t=165000 psel=1 penable=0 paddr=0x00000014 pwdata=0x00000000
# UVM_INFO ../tb/agent_ahb/ahb_agent_pkg.sv(251) @ 166000: uvm_test_top.env.ahb_agnt.mon [AHB_MON] Captured: TXN: AHB_READ addr=0x00000014 data=0xa5a50005 trans=HTRANS_NONSEQ resp=HRESP_OKAY delay=0
# UVM_INFO ../tb/agent_apb/apb_agent_pkg.sv(123) @ 175000: uvm_test_top.env.apb_agnt.mon [APB_MON] Captured: TXN: AHB_READ addr=0x00000014 data=0xa5a50005 trans=HTRANS_NONSEQ resp=HRESP_OKAY delay=0
# [TOP MON] t=175000 psel=1 penable=1 paddr=0x00000014 pwdata=0x00000000
# UVM_INFO ../tb/env/bridge_env_pkg.sv(85) @ 175000: uvm_test_top.env.scoreboard [SBOARD] [PASS] AHB_READ addr=0x00000014 data=0xa5a50005
# [TOP MON] t=305000 psel=1 penable=0 paddr=0x00000040 pwdata=0x9894f8f0
# UVM_INFO ../tb/agent_ahb/ahb_agent_pkg.sv(251) @ 306000: uvm_test_top.env.ahb_agnt.mon [AHB_MON] Captured: TXN: AHB_WRITE addr=0x00000040 data=0x9894f8f0 trans=HTRANS_NONSEQ resp=HRESP_OKAY delay=0
# UVM_INFO ../tb/agent_apb/apb_agent_pkg.sv(123) @ 315000: uvm_test_top.env.apb_agnt.mon [APB_MON] Captured: TXN: AHB_WRITE addr=0x00000040 data=0x9894f8f0 trans=HTRANS_NONSEQ resp=HRESP_OKAY delay=0
# [TOP MON] t=315000 psel=1 penable=1 paddr=0x00000040 pwdata=0x9894f8f0
# UVM_INFO ../tb/env/bridge_env_pkg.sv(85) @ 315000: uvm_test_top.env.scoreboard [SBOARD] [PASS] AHB_WRITE addr=0x00000040 data=0x9894f8f0
# [TOP MON] t=345000 psel=1 penable=0 paddr=0x00000084 pwdata=0x00000000
# UVM_INFO ../tb/agent_ahb/ahb_agent_pkg.sv(251) @ 346000: uvm_test_top.env.ahb_agnt.mon [AHB_MON] Captured: TXN: AHB_READ addr=0x00000084 data=0xa5a50021 trans=HTRANS_NONSEQ resp=HRESP_OKAY delay=0
# UVM_INFO ../tb/agent_apb/apb_agent_pkg.sv(123) @ 355000: uvm_test_top.env.apb_agnt.mon [APB_MON] Captured: TXN: AHB_READ addr=0x00000084 data=0xa5a50021 trans=HTRANS_NONSEQ resp=HRESP_OKAY delay=0
# [TOP MON] t=355000 psel=1 penable=1 paddr=0x00000084 pwdata=0x00000000
# UVM_INFO ../tb/env/bridge_env_pkg.sv(85) @ 355000: uvm_test_top.env.scoreboard [SBOARD] [PASS] AHB_READ addr=0x00000084 data=0xa5a50021
# [TOP MON] t=425000 psel=1 penable=0 paddr=0x000000a0 pwdata=0xafddea83
# UVM_INFO ../tb/agent_ahb/ahb_agent_pkg.sv(251) @ 426000: uvm_test_top.env.ahb_agnt.mon [AHB_MON] Captured: TXN: AHB_WRITE addr=0x000000a0 data=0xafddea83 trans=HTRANS_NONSEQ resp=HRESP_OKAY delay=0
# UVM_INFO ../tb/agent_apb/apb_agent_pkg.sv(123) @ 435000: uvm_test_top.env.apb_agnt.mon [APB_MON] Captured: TXN: AHB_WRITE addr=0x000000a0 data=0xafddea83 trans=HTRANS_NONSEQ resp=HRESP_OKAY delay=0
# [TOP MON] t=435000 psel=1 penable=1 paddr=0x000000a0 pwdata=0xafddea83
# UVM_INFO ../tb/env/bridge_env_pkg.sv(85) @ 435000: uvm_test_top.env.scoreboard [SBOARD] [PASS] AHB_WRITE addr=0x000000a0 data=0xafddea83
# [TOP MON] t=475000 psel=1 penable=0 paddr=0x00000008 pwdata=0x21cd5076
# UVM_INFO ../tb/agent_ahb/ahb_agent_pkg.sv(251) @ 476000: uvm_test_top.env.ahb_agnt.mon [AHB_MON] Captured: TXN: AHB_WRITE addr=0x00000008 data=0x21cd5076 trans=HTRANS_NONSEQ resp=HRESP_OKAY delay=0
# UVM_INFO ../tb/agent_apb/apb_agent_pkg.sv(123) @ 485000: uvm_test_top.env.apb_agnt.mon [APB_MON] Captured: TXN: AHB_WRITE addr=0x00000008 data=0x21cd5076 trans=HTRANS_NONSEQ resp=HRESP_OKAY delay=0
# [TOP MON] t=485000 psel=1 penable=1 paddr=0x00000008 pwdata=0x21cd5076
# UVM_INFO ../tb/env/bridge_env_pkg.sv(85) @ 485000: uvm_test_top.env.scoreboard [SBOARD] [PASS] AHB_WRITE addr=0x00000008 data=0x21cd5076
# [TOP MON] t=585000 psel=1 penable=0 paddr=0x00000030 pwdata=0x531e484d
# UVM_INFO ../tb/agent_ahb/ahb_agent_pkg.sv(251) @ 586000: uvm_test_top.env.ahb_agnt.mon [AHB_MON] Captured: TXN: AHB_WRITE addr=0x00000030 data=0x531e484d trans=HTRANS_NONSEQ resp=HRESP_OKAY delay=0
# UVM_INFO ../tb/agent_apb/apb_agent_pkg.sv(123) @ 595000: uvm_test_top.env.apb_agnt.mon [APB_MON] Captured: TXN: AHB_WRITE addr=0x00000030 data=0x531e484d trans=HTRANS_NONSEQ resp=HRESP_OKAY delay=0
# [TOP MON] t=595000 psel=1 penable=1 paddr=0x00000030 pwdata=0x531e484d
# UVM_INFO ../tb/env/bridge_env_pkg.sv(85) @ 595000: uvm_test_top.env.scoreboard [SBOARD] [PASS] AHB_WRITE addr=0x00000030 data=0x531e484d
# [TOP MON] t=625000 psel=1 penable=0 paddr=0x000000d4 pwdata=0x00000000
# UVM_INFO ../tb/agent_ahb/ahb_agent_pkg.sv(251) @ 626000: uvm_test_top.env.ahb_agnt.mon [AHB_MON] Captured: TXN: AHB_READ addr=0x000000d4 data=0xa5a50035 trans=HTRANS_NONSEQ resp=HRESP_OKAY delay=0
# UVM_INFO ../tb/agent_apb/apb_agent_pkg.sv(123) @ 635000: uvm_test_top.env.apb_agnt.mon [APB_MON] Captured: TXN: AHB_READ addr=0x000000d4 data=0xa5a50035 trans=HTRANS_NONSEQ resp=HRESP_OKAY delay=0
# [TOP MON] t=635000 psel=1 penable=1 paddr=0x000000d4 pwdata=0x00000000
# UVM_INFO ../tb/env/bridge_env_pkg.sv(85) @ 635000: uvm_test_top.env.scoreboard [SBOARD] [PASS] AHB_READ addr=0x000000d4 data=0xa5a50035
# [TOP MON] t=725000 psel=1 penable=0 paddr=0x00000034 pwdata=0x00000000
# UVM_INFO ../tb/agent_ahb/ahb_agent_pkg.sv(251) @ 726000: uvm_test_top.env.ahb_agnt.mon [AHB_MON] Captured: TXN: AHB_READ addr=0x00000034 data=0xa5a5000d trans=HTRANS_NONSEQ resp=HRESP_OKAY delay=0
# UVM_INFO ../tb/agent_apb/apb_agent_pkg.sv(123) @ 735000: uvm_test_top.env.apb_agnt.mon [APB_MON] Captured: TXN: AHB_READ addr=0x00000034 data=0xa5a5000d trans=HTRANS_NONSEQ resp=HRESP_OKAY delay=0
# [TOP MON] t=735000 psel=1 penable=1 paddr=0x00000034 pwdata=0x00000000
# UVM_INFO ../tb/env/bridge_env_pkg.sv(85) @ 735000: uvm_test_top.env.scoreboard [SBOARD] [PASS] AHB_READ addr=0x00000034 data=0xa5a5000d
# [TOP MON] t=825000 psel=1 penable=0 paddr=0x000000f0 pwdata=0x9aad0cc8
# UVM_INFO ../tb/agent_ahb/ahb_agent_pkg.sv(251) @ 826000: uvm_test_top.env.ahb_agnt.mon [AHB_MON] Captured: TXN: AHB_WRITE addr=0x000000f0 data=0x9aad0cc8 trans=HTRANS_NONSEQ resp=HRESP_OKAY delay=0
# UVM_INFO ../tb/agent_apb/apb_agent_pkg.sv(123) @ 835000: uvm_test_top.env.apb_agnt.mon [APB_MON] Captured: TXN: AHB_WRITE addr=0x000000f0 data=0x9aad0cc8 trans=HTRANS_NONSEQ resp=HRESP_OKAY delay=0
# [TOP MON] t=835000 psel=1 penable=1 paddr=0x000000f0 pwdata=0x9aad0cc8
# UVM_INFO ../tb/env/bridge_env_pkg.sv(85) @ 835000: uvm_test_top.env.scoreboard [SBOARD] [PASS] AHB_WRITE addr=0x000000f0 data=0x9aad0cc8
# [TOP MON] t=955000 psel=1 penable=0 paddr=0x0000004c pwdata=0xbb58b1c4
# UVM_INFO ../tb/agent_ahb/ahb_agent_pkg.sv(251) @ 956000: uvm_test_top.env.ahb_agnt.mon [AHB_MON] Captured: TXN: AHB_WRITE addr=0x0000004c data=0xbb58b1c4 trans=HTRANS_NONSEQ resp=HRESP_OKAY delay=0
# UVM_INFO ../tb/agent_apb/apb_agent_pkg.sv(123) @ 965000: uvm_test_top.env.apb_agnt.mon [APB_MON] Captured: TXN: AHB_WRITE addr=0x0000004c data=0xbb58b1c4 trans=HTRANS_NONSEQ resp=HRESP_OKAY delay=0
# [TOP MON] t=965000 psel=1 penable=1 paddr=0x0000004c pwdata=0xbb58b1c4
# UVM_INFO ../tb/env/bridge_env_pkg.sv(85) @ 965000: uvm_test_top.env.scoreboard [SBOARD] [PASS] AHB_WRITE addr=0x0000004c data=0xbb58b1c4
# [TOP MON] t=1035000 psel=1 penable=0 paddr=0x00000000 pwdata=0xb41d9834
# UVM_INFO ../tb/agent_ahb/ahb_agent_pkg.sv(251) @ 1036000: uvm_test_top.env.ahb_agnt.mon [AHB_MON] Captured: TXN: AHB_WRITE addr=0x00000000 data=0xb41d9834 trans=HTRANS_NONSEQ resp=HRESP_OKAY delay=0
# UVM_INFO ../tb/agent_apb/apb_agent_pkg.sv(123) @ 1045000: uvm_test_top.env.apb_agnt.mon [APB_MON] Captured: TXN: AHB_WRITE addr=0x00000000 data=0xb41d9834 trans=HTRANS_NONSEQ resp=HRESP_OKAY delay=0
# [TOP MON] t=1045000 psel=1 penable=1 paddr=0x00000000 pwdata=0xb41d9834
# UVM_INFO ../tb/env/bridge_env_pkg.sv(85) @ 1045000: uvm_test_top.env.scoreboard [SBOARD] [PASS] AHB_WRITE addr=0x00000000 data=0xb41d9834
# [TOP MON] t=1085000 psel=1 penable=0 paddr=0x00000078 pwdata=0x2e549d31
# UVM_INFO ../tb/agent_ahb/ahb_agent_pkg.sv(251) @ 1086000: uvm_test_top.env.ahb_agnt.mon [AHB_MON] Captured: TXN: AHB_WRITE addr=0x00000078 data=0x2e549d31 trans=HTRANS_NONSEQ resp=HRESP_OKAY delay=0
# UVM_INFO ../tb/agent_apb/apb_agent_pkg.sv(123) @ 1095000: uvm_test_top.env.apb_agnt.mon [APB_MON] Captured: TXN: AHB_WRITE addr=0x00000078 data=0x2e549d31 trans=HTRANS_NONSEQ resp=HRESP_OKAY delay=0
# [TOP MON] t=1095000 psel=1 penable=1 paddr=0x00000078 pwdata=0x2e549d31
# UVM_INFO ../tb/env/bridge_env_pkg.sv(85) @ 1095000: uvm_test_top.env.scoreboard [SBOARD] [PASS] AHB_WRITE addr=0x00000078 data=0x2e549d31
# [TOP MON] t=1175000 psel=1 penable=0 paddr=0x00000074 pwdata=0xeff6ae11
# UVM_INFO ../tb/agent_ahb/ahb_agent_pkg.sv(251) @ 1176000: uvm_test_top.env.ahb_agnt.mon [AHB_MON] Captured: TXN: AHB_WRITE addr=0x00000074 data=0xeff6ae11 trans=HTRANS_NONSEQ resp=HRESP_OKAY delay=0
# UVM_INFO ../tb/agent_apb/apb_agent_pkg.sv(123) @ 1185000: uvm_test_top.env.apb_agnt.mon [APB_MON] Captured: TXN: AHB_WRITE addr=0x00000074 data=0xeff6ae11 trans=HTRANS_NONSEQ resp=HRESP_OKAY delay=0
# [TOP MON] t=1185000 psel=1 penable=1 paddr=0x00000074 pwdata=0xeff6ae11
# UVM_INFO ../tb/env/bridge_env_pkg.sv(85) @ 1185000: uvm_test_top.env.scoreboard [SBOARD] [PASS] AHB_WRITE addr=0x00000074 data=0xeff6ae11
# [TOP MON] t=1315000 psel=1 penable=0 paddr=0x000000fc pwdata=0x3ac12aba
# UVM_INFO ../tb/agent_ahb/ahb_agent_pkg.sv(251) @ 1316000: uvm_test_top.env.ahb_agnt.mon [AHB_MON] Captured: TXN: AHB_WRITE addr=0x000000fc data=0x3ac12aba trans=HTRANS_NONSEQ resp=HRESP_OKAY delay=0
# UVM_INFO ../tb/agent_apb/apb_agent_pkg.sv(123) @ 1325000: uvm_test_top.env.apb_agnt.mon [APB_MON] Captured: TXN: AHB_WRITE addr=0x000000fc data=0x3ac12aba trans=HTRANS_NONSEQ resp=HRESP_OKAY delay=0
# [TOP MON] t=1325000 psel=1 penable=1 paddr=0x000000fc pwdata=0x3ac12aba
# UVM_INFO ../tb/env/bridge_env_pkg.sv(85) @ 1325000: uvm_test_top.env.scoreboard [SBOARD] [PASS] AHB_WRITE addr=0x000000fc data=0x3ac12aba
# [TOP MON] t=1425000 psel=1 penable=0 paddr=0x000000a8 pwdata=0xe558436e
# UVM_INFO ../tb/agent_ahb/ahb_agent_pkg.sv(251) @ 1426000: uvm_test_top.env.ahb_agnt.mon [AHB_MON] Captured: TXN: AHB_WRITE addr=0x000000a8 data=0xe558436e trans=HTRANS_NONSEQ resp=HRESP_OKAY delay=0
# UVM_INFO ../tb/agent_apb/apb_agent_pkg.sv(123) @ 1435000: uvm_test_top.env.apb_agnt.mon [APB_MON] Captured: TXN: AHB_WRITE addr=0x000000a8 data=0xe558436e trans=HTRANS_NONSEQ resp=HRESP_OKAY delay=0
# [TOP MON] t=1435000 psel=1 penable=1 paddr=0x000000a8 pwdata=0xe558436e
# UVM_INFO ../tb/env/bridge_env_pkg.sv(85) @ 1435000: uvm_test_top.env.scoreboard [SBOARD] [PASS] AHB_WRITE addr=0x000000a8 data=0xe558436e
# [TOP MON] t=1495000 psel=1 penable=0 paddr=0x00000038 pwdata=0x85be27ca
# UVM_INFO ../tb/agent_ahb/ahb_agent_pkg.sv(251) @ 1496000: uvm_test_top.env.ahb_agnt.mon [AHB_MON] Captured: TXN: AHB_WRITE addr=0x00000038 data=0x85be27ca trans=HTRANS_NONSEQ resp=HRESP_OKAY delay=0
# UVM_INFO ../tb/agent_apb/apb_agent_pkg.sv(123) @ 1505000: uvm_test_top.env.apb_agnt.mon [APB_MON] Captured: TXN: AHB_WRITE addr=0x00000038 data=0x85be27ca trans=HTRANS_NONSEQ resp=HRESP_OKAY delay=0
# [TOP MON] t=1505000 psel=1 penable=1 paddr=0x00000038 pwdata=0x85be27ca
# UVM_INFO ../tb/env/bridge_env_pkg.sv(85) @ 1505000: uvm_test_top.env.scoreboard [SBOARD] [PASS] AHB_WRITE addr=0x00000038 data=0x85be27ca
# [TOP MON] t=1545000 psel=1 penable=0 paddr=0x00000004 pwdata=0x5fe82111
# UVM_INFO ../tb/agent_ahb/ahb_agent_pkg.sv(251) @ 1546000: uvm_test_top.env.ahb_agnt.mon [AHB_MON] Captured: TXN: AHB_WRITE addr=0x00000004 data=0x5fe82111 trans=HTRANS_NONSEQ resp=HRESP_OKAY delay=0
# UVM_INFO ../tb/agent_apb/apb_agent_pkg.sv(123) @ 1555000: uvm_test_top.env.apb_agnt.mon [APB_MON] Captured: TXN: AHB_WRITE addr=0x00000004 data=0x5fe82111 trans=HTRANS_NONSEQ resp=HRESP_OKAY delay=0
# [TOP MON] t=1555000 psel=1 penable=1 paddr=0x00000004 pwdata=0x5fe82111
# UVM_INFO ../tb/env/bridge_env_pkg.sv(85) @ 1555000: uvm_test_top.env.scoreboard [SBOARD] [PASS] AHB_WRITE addr=0x00000004 data=0x5fe82111
# [TOP MON] t=1695000 psel=1 penable=0 paddr=0x00000050 pwdata=0x57513bf8
# UVM_INFO ../tb/agent_ahb/ahb_agent_pkg.sv(251) @ 1696000: uvm_test_top.env.ahb_agnt.mon [AHB_MON] Captured: TXN: AHB_WRITE addr=0x00000050 data=0x57513bf8 trans=HTRANS_NONSEQ resp=HRESP_OKAY delay=0
# UVM_INFO ../tb/agent_apb/apb_agent_pkg.sv(123) @ 1705000: uvm_test_top.env.apb_agnt.mon [APB_MON] Captured: TXN: AHB_WRITE addr=0x00000050 data=0x57513bf8 trans=HTRANS_NONSEQ resp=HRESP_OKAY delay=0
# [TOP MON] t=1705000 psel=1 penable=1 paddr=0x00000050 pwdata=0x57513bf8
# UVM_INFO ../tb/env/bridge_env_pkg.sv(85) @ 1705000: uvm_test_top.env.scoreboard [SBOARD] [PASS] AHB_WRITE addr=0x00000050 data=0x57513bf8
# [TOP MON] t=1775000 psel=1 penable=0 paddr=0x00000058 pwdata=0xa38dd336
# UVM_INFO ../tb/agent_ahb/ahb_agent_pkg.sv(251) @ 1776000: uvm_test_top.env.ahb_agnt.mon [AHB_MON] Captured: TXN: AHB_WRITE addr=0x00000058 data=0xa38dd336 trans=HTRANS_NONSEQ resp=HRESP_OKAY delay=0
# UVM_INFO ../tb/agent_apb/apb_agent_pkg.sv(123) @ 1785000: uvm_test_top.env.apb_agnt.mon [APB_MON] Captured: TXN: AHB_WRITE addr=0x00000058 data=0xa38dd336 trans=HTRANS_NONSEQ resp=HRESP_OKAY delay=0
# [TOP MON] t=1785000 psel=1 penable=1 paddr=0x00000058 pwdata=0xa38dd336
# UVM_INFO ../tb/env/bridge_env_pkg.sv(85) @ 1785000: uvm_test_top.env.scoreboard [SBOARD] [PASS] AHB_WRITE addr=0x00000058 data=0xa38dd336
# [TOP MON] t=1885000 psel=1 penable=0 paddr=0x00000080 pwdata=0x1171afbe
# UVM_INFO ../tb/agent_ahb/ahb_agent_pkg.sv(251) @ 1886000: uvm_test_top.env.ahb_agnt.mon [AHB_MON] Captured: TXN: AHB_WRITE addr=0x00000080 data=0x1171afbe trans=HTRANS_NONSEQ resp=HRESP_OKAY delay=0
# UVM_INFO ../tb/agent_apb/apb_agent_pkg.sv(123) @ 1895000: uvm_test_top.env.apb_agnt.mon [APB_MON] Captured: TXN: AHB_WRITE addr=0x00000080 data=0x1171afbe trans=HTRANS_NONSEQ resp=HRESP_OKAY delay=0
# [TOP MON] t=1895000 psel=1 penable=1 paddr=0x00000080 pwdata=0x1171afbe
# UVM_INFO ../tb/env/bridge_env_pkg.sv(85) @ 1895000: uvm_test_top.env.scoreboard [SBOARD] [PASS] AHB_WRITE addr=0x00000080 data=0x1171afbe
# [TOP MON] t=1965000 psel=1 penable=0 paddr=0x000000a8 pwdata=0xd297d371
# UVM_INFO ../tb/agent_ahb/ahb_agent_pkg.sv(251) @ 1966000: uvm_test_top.env.ahb_agnt.mon [AHB_MON] Captured: TXN: AHB_WRITE addr=0x000000a8 data=0xd297d371 trans=HTRANS_NONSEQ resp=HRESP_OKAY delay=0
# UVM_INFO ../tb/agent_apb/apb_agent_pkg.sv(123) @ 1975000: uvm_test_top.env.apb_agnt.mon [APB_MON] Captured: TXN: AHB_WRITE addr=0x000000a8 data=0xd297d371 trans=HTRANS_NONSEQ resp=HRESP_OKAY delay=0
# [TOP MON] t=1975000 psel=1 penable=1 paddr=0x000000a8 pwdata=0xd297d371
# UVM_INFO ../tb/env/bridge_env_pkg.sv(85) @ 1975000: uvm_test_top.env.scoreboard [SBOARD] [PASS] AHB_WRITE addr=0x000000a8 data=0xd297d371
# [TOP MON] t=2115000 psel=1 penable=0 paddr=0x00000028 pwdata=0x5ed70e43
# UVM_INFO ../tb/agent_ahb/ahb_agent_pkg.sv(251) @ 2116000: uvm_test_top.env.ahb_agnt.mon [AHB_MON] Captured: TXN: AHB_WRITE addr=0x00000028 data=0x5ed70e43 trans=HTRANS_NONSEQ resp=HRESP_OKAY delay=0
# UVM_INFO ../tb/agent_apb/apb_agent_pkg.sv(123) @ 2125000: uvm_test_top.env.apb_agnt.mon [APB_MON] Captured: TXN: AHB_WRITE addr=0x00000028 data=0x5ed70e43 trans=HTRANS_NONSEQ resp=HRESP_OKAY delay=0
# [TOP MON] t=2125000 psel=1 penable=1 paddr=0x00000028 pwdata=0x5ed70e43
# UVM_INFO ../tb/env/bridge_env_pkg.sv(85) @ 2125000: uvm_test_top.env.scoreboard [SBOARD] [PASS] AHB_WRITE addr=0x00000028 data=0x5ed70e43
# [TOP MON] t=2165000 psel=1 penable=0 paddr=0x00000064 pwdata=0x505c9ad8
# UVM_INFO ../tb/agent_ahb/ahb_agent_pkg.sv(251) @ 2166000: uvm_test_top.env.ahb_agnt.mon [AHB_MON] Captured: TXN: AHB_WRITE addr=0x00000064 data=0x505c9ad8 trans=HTRANS_NONSEQ resp=HRESP_OKAY delay=0
# UVM_INFO ../tb/agent_apb/apb_agent_pkg.sv(123) @ 2175000: uvm_test_top.env.apb_agnt.mon [APB_MON] Captured: TXN: AHB_WRITE addr=0x00000064 data=0x505c9ad8 trans=HTRANS_NONSEQ resp=HRESP_OKAY delay=0
# [TOP MON] t=2175000 psel=1 penable=1 paddr=0x00000064 pwdata=0x505c9ad8
# UVM_INFO ../tb/env/bridge_env_pkg.sv(85) @ 2175000: uvm_test_top.env.scoreboard [SBOARD] [PASS] AHB_WRITE addr=0x00000064 data=0x505c9ad8
# [TOP MON] t=2275000 psel=1 penable=0 paddr=0x000000c4 pwdata=0x00000000
# UVM_INFO ../tb/agent_ahb/ahb_agent_pkg.sv(251) @ 2276000: uvm_test_top.env.ahb_agnt.mon [AHB_MON] Captured: TXN: AHB_READ addr=0x000000c4 data=0xa5a50031 trans=HTRANS_NONSEQ resp=HRESP_OKAY delay=0
# UVM_INFO ../tb/agent_apb/apb_agent_pkg.sv(123) @ 2285000: uvm_test_top.env.apb_agnt.mon [APB_MON] Captured: TXN: AHB_READ addr=0x000000c4 data=0xa5a50031 trans=HTRANS_NONSEQ resp=HRESP_OKAY delay=0
# [TOP MON] t=2285000 psel=1 penable=1 paddr=0x000000c4 pwdata=0x00000000
# UVM_INFO ../tb/env/bridge_env_pkg.sv(85) @ 2285000: uvm_test_top.env.scoreboard [SBOARD] [PASS] AHB_READ addr=0x000000c4 data=0xa5a50031
# [TOP MON] t=2375000 psel=1 penable=0 paddr=0x0000001c pwdata=0x223c456e
# UVM_INFO ../tb/agent_ahb/ahb_agent_pkg.sv(251) @ 2376000: uvm_test_top.env.ahb_agnt.mon [AHB_MON] Captured: TXN: AHB_WRITE addr=0x0000001c data=0x223c456e trans=HTRANS_NONSEQ resp=HRESP_OKAY delay=0
# UVM_INFO ../tb/agent_apb/apb_agent_pkg.sv(123) @ 2385000: uvm_test_top.env.apb_agnt.mon [APB_MON] Captured: TXN: AHB_WRITE addr=0x0000001c data=0x223c456e trans=HTRANS_NONSEQ resp=HRESP_OKAY delay=0
# [TOP MON] t=2385000 psel=1 penable=1 paddr=0x0000001c pwdata=0x223c456e
# UVM_INFO ../tb/env/bridge_env_pkg.sv(85) @ 2385000: uvm_test_top.env.scoreboard [SBOARD] [PASS] AHB_WRITE addr=0x0000001c data=0x223c456e
# [TOP MON] t=2455000 psel=1 penable=0 paddr=0x00000088 pwdata=0x84b4cdfa
# UVM_INFO ../tb/agent_ahb/ahb_agent_pkg.sv(251) @ 2456000: uvm_test_top.env.ahb_agnt.mon [AHB_MON] Captured: TXN: AHB_WRITE addr=0x00000088 data=0x84b4cdfa trans=HTRANS_NONSEQ resp=HRESP_OKAY delay=0
# UVM_INFO ../tb/agent_apb/apb_agent_pkg.sv(123) @ 2465000: uvm_test_top.env.apb_agnt.mon [APB_MON] Captured: TXN: AHB_WRITE addr=0x00000088 data=0x84b4cdfa trans=HTRANS_NONSEQ resp=HRESP_OKAY delay=0
# [TOP MON] t=2465000 psel=1 penable=1 paddr=0x00000088 pwdata=0x84b4cdfa
# UVM_INFO ../tb/env/bridge_env_pkg.sv(85) @ 2465000: uvm_test_top.env.scoreboard [SBOARD] [PASS] AHB_WRITE addr=0x00000088 data=0x84b4cdfa
# [TOP MON] t=2575000 psel=1 penable=0 paddr=0x00000054 pwdata=0x00000000
# UVM_INFO ../tb/agent_ahb/ahb_agent_pkg.sv(251) @ 2576000: uvm_test_top.env.ahb_agnt.mon [AHB_MON] Captured: TXN: AHB_READ addr=0x00000054 data=0xa5a50015 trans=HTRANS_NONSEQ resp=HRESP_OKAY delay=0
