sim/transcript
# vsim -c tb_uvm_top "+UVM_TESTNAME=bridge_corners_test" "+UVM_VERBOSITY=UVM_MEDIUM" -voptargs="+acc" -do "run -all; quit" 
# Start time: 15:02:34 on Mar 16,2026
# ** Note: (vsim-3812) Design is being optimized...
# ** Note: (vopt-143) Recognized 1 FSM in module "ahb_apb_bridge(fast)".
# //  Questa Sim-64
# //  Version 2019.2 linux_x86_64 Apr 16 2019
# //
# //  Copyright 1991-2019 Mentor Graphics Corporation
# //  All Rights Reserved.
# //
# //  QuestaSim and its associated documentation contain trade
# //  secrets and commercial or financial information that are the property of
# //  Mentor Graphics Corporation and are privileged, confidential,
# //  and exempt from disclosure under the Freedom of Information Act,
# //  5 U.S.C. Section 552. Furthermore, this information
# //  is prohibited from disclosure under the Trade Secrets Act,
# //  18 U.S.C. Section 1905.
# //
# Loading sv_std.std
# Loading work.ahb_apb_if(fast)
# Loading mtiUvm.uvm_pkg
# Loading work.ahb_apb_txn_pkg(fast)
# Loading work.apb_agent_pkg(fast)
# Loading work.ahb_agent_pkg(fast)
# Loading work.bridge_env_pkg(fast)
# Loading work.bridge_test_pkg(fast)
# Loading work.tb_uvm_top_sv_unit(fast)
# Loading mtiUvm.questa_uvm_pkg(fast)
# Loading work.tb_uvm_top(fast)
# Loading work.ahb_apb_if(fast)
# Loading work.ahb_apb_bridge(fast)
# Loading /home/cad/eda/Questa_2019/questasim/uvm-1.1d/linux_x86_64/uvm_dpi.so
# run -all
# ----------------------------------------------------------------
# UVM-1.1d
# (C) 2007-2013 Mentor Graphics Corporation
# (C) 2007-2013 Cadence Design Systems, Inc.
# (C) 2006-2013 Synopsys, Inc.
# (C) 2011-2013 Cypress Semiconductor Corp.
# ----------------------------------------------------------------
# 
#   ***********       IMPORTANT RELEASE NOTES         ************
# 
#   You are using a version of the UVM library that has been compiled
#   with `UVM_NO_DEPRECATED undefined.
#   See http://www.eda.org/svdb/view.php?id=3313 for more details.
# 
#   You are using a version of the UVM library that has been compiled
#   with `UVM_OBJECT_MUST_HAVE_CONSTRUCTOR undefined.
#   See http://www.eda.org/svdb/view.php?id=3770 for more details.
# 
#       (Specify +UVM_NO_RELNOTES to turn off this notice)
# 
# UVM_INFO verilog_src/questa_uvm_pkg-1.2/src/questa_uvm_pkg.sv(277) @ 0: reporter [Questa UVM] QUESTA_UVM-1.2.3
# UVM_INFO verilog_src/questa_uvm_pkg-1.2/src/questa_uvm_pkg.sv(278) @ 0: reporter [Questa UVM]  questa_uvm::init(+struct)
# UVM_INFO @ 0: reporter [RNTST] Running test bridge_corners_test...
# UVM_WARNING @ 0: reporter [TYPDUP] Original and override type arguments are identical: ahb_agent
# UVM_WARNING @ 0: reporter [TYPDUP] Original and override type arguments are identical: apb_agent
# UVM_INFO @ 0: reporter [UVMTOP] UVM testbench topology:
# ------------------------------------------------------------------
# Name                       Type                        Size  Value
# ------------------------------------------------------------------
# uvm_test_top               bridge_corners_test         -     @471 
#   env                      bridge_env                  -     @478 
#     ahb_agnt               ahb_agent                   -     @485 
#       ap                   uvm_analysis_port           -     @529 
#       drv                  ahb_driver                  -     @646 
#         rsp_port           uvm_analysis_port           -     @661 
#         seq_item_port      uvm_seq_item_pull_port      -     @653 
#       mon                  ahb_monitor                 -     @522 
#         ap                 uvm_analysis_port           -     @670 
#       seqr                 ahb_sequencer               -     @537 
#         rsp_export         uvm_analysis_export         -     @544 
#         seq_item_export    uvm_seq_item_pull_imp       -     @638 
#         arbitration_queue  array                       0     -    
#         lock_queue         array                       0     -    
#         num_last_reqs      integral                    32    'd1  
#         num_last_rsps      integral                    32    'd1  
#     apb_agnt               apb_agent                   -     @492 
#       ap                   uvm_analysis_port           -     @699 
#       mon                  apb_monitor                 -     @685 
#         ap                 uvm_analysis_port           -     @707 
#       slave                apb_slave_model             -     @692 
#     coverage               bridge_coverage             -     @506 
#       analysis_imp         uvm_analysis_imp            -     @513 
#     scoreboard             bridge_scoreboard           -     @499 
#       ahb_fifo             uvm_tlm_analysis_fifo #(T)  -     @717 
#         analysis_export    uvm_analysis_imp            -     @756 
#         get_ap             uvm_analysis_port           -     @748 
#         get_peek_export    uvm_get_peek_imp            -     @732 
#         put_ap             uvm_analysis_port           -     @740 
#         put_export         uvm_put_imp                 -     @724 
#       apb_fifo             uvm_tlm_analysis_fifo #(T)  -     @764 
#         analysis_export    uvm_analysis_imp            -     @803 
#         get_ap             uvm_analysis_port           -     @795 
#         get_peek_export    uvm_get_peek_imp            -     @779 
#         put_ap             uvm_analysis_port           -     @787 
#         put_export         uvm_put_imp                 -     @771 
# ------------------------------------------------------------------
# 
# UVM_INFO ../tb/tests/bridge_test_pkg.sv(617) @ 0: uvm_test_top [CORNERS_TEST] Starting data corners test
# UVM_INFO ../tb/tests/bridge_test_pkg.sv(572) @ 0: uvm_test_top.env.ahb_agnt.seqr@@corners [CORNERS_SEQ] Driving data corner cases
# UVM_INFO ../tb/top/tb_uvm_top.sv(128) @ 46000: reporter [TOP] Reset released - starting UVM
# [TOP MON] t=85000 psel=1 penable=0 paddr=0x00000010 pwdata=0x00000000
# UVM_INFO ../tb/agent_ahb/ahb_agent_pkg.sv(251) @ 86000: uvm_test_top.env.ahb_agnt.mon [AHB_MON] Captured: TXN: AHB_WRITE addr=0x00000010 data=0x00000000 trans=HTRANS_NONSEQ resp=HRESP_OKAY delay=0
# UVM_INFO ../tb/agent_apb/apb_agent_pkg.sv(123) @ 95000: uvm_test_top.env.apb_agnt.mon [APB_MON] Captured: TXN: AHB_WRITE addr=0x00000010 data=0x00000000 trans=HTRANS_NONSEQ resp=HRESP_OKAY delay=0
# [TOP MON] t=95000 psel=1 penable=1 paddr=0x00000010 pwdata=0x00000000
# UVM_INFO ../tb/env/bridge_env_pkg.sv(85) @ 95000: uvm_test_top.env.scoreboard [SBOARD] [PASS] AHB_WRITE addr=0x00000010 data=0x00000000
# [TOP MON] t=135000 psel=1 penable=0 paddr=0x00000014 pwdata=0xffffffff
# UVM_INFO ../tb/agent_ahb/ahb_agent_pkg.sv(251) @ 136000: uvm_test_top.env.ahb_agnt.mon [AHB_MON] Captured: TXN: AHB_WRITE addr=0x00000014 data=0xffffffff trans=HTRANS_NONSEQ resp=HRESP_OKAY delay=0
# UVM_INFO ../tb/agent_apb/apb_agent_pkg.sv(123) @ 145000: uvm_test_top.env.apb_agnt.mon [APB_MON] Captured: TXN: AHB_WRITE addr=0x00000014 data=0xffffffff trans=HTRANS_NONSEQ resp=HRESP_OKAY delay=0
# [TOP MON] t=145000 psel=1 penable=1 paddr=0x00000014 pwdata=0xffffffff
# UVM_INFO ../tb/env/bridge_env_pkg.sv(85) @ 145000: uvm_test_top.env.scoreboard [SBOARD] [PASS] AHB_WRITE addr=0x00000014 data=0xffffffff
# [TOP MON] t=185000 psel=1 penable=0 paddr=0x00000018 pwdata=0xaaaaaaaa
# UVM_INFO ../tb/agent_ahb/ahb_agent_pkg.sv(251) @ 186000: uvm_test_top.env.ahb_agnt.mon [AHB_MON] Captured: TXN: AHB_WRITE addr=0x00000018 data=0xaaaaaaaa trans=HTRANS_NONSEQ resp=HRESP_OKAY delay=0
# UVM_INFO ../tb/agent_apb/apb_agent_pkg.sv(123) @ 195000: uvm_test_top.env.apb_agnt.mon [APB_MON] Captured: TXN: AHB_WRITE addr=0x00000018 data=0xaaaaaaaa trans=HTRANS_NONSEQ resp=HRESP_OKAY delay=0
# [TOP MON] t=195000 psel=1 penable=1 paddr=0x00000018 pwdata=0xaaaaaaaa
# UVM_INFO ../tb/env/bridge_env_pkg.sv(85) @ 195000: uvm_test_top.env.scoreboard [SBOARD] [PASS] AHB_WRITE addr=0x00000018 data=0xaaaaaaaa
# [TOP MON] t=235000 psel=1 penable=0 paddr=0x0000001c pwdata=0x55555555
# UVM_INFO ../tb/agent_ahb/ahb_agent_pkg.sv(251) @ 236000: uvm_test_top.env.ahb_agnt.mon [AHB_MON] Captured: TXN: AHB_WRITE addr=0x0000001c data=0x55555555 trans=HTRANS_NONSEQ resp=HRESP_OKAY delay=0
# UVM_INFO ../tb/agent_apb/apb_agent_pkg.sv(123) @ 245000: uvm_test_top.env.apb_agnt.mon [APB_MON] Captured: TXN: AHB_WRITE addr=0x0000001c data=0x55555555 trans=HTRANS_NONSEQ resp=HRESP_OKAY delay=0
# [TOP MON] t=245000 psel=1 penable=1 paddr=0x0000001c pwdata=0x55555555
# UVM_INFO ../tb/env/bridge_env_pkg.sv(85) @ 245000: uvm_test_top.env.scoreboard [SBOARD] [PASS] AHB_WRITE addr=0x0000001c data=0x55555555
# [TOP MON] t=275000 psel=1 penable=0 paddr=0x00000010 pwdata=0x00000000
# UVM_INFO ../tb/agent_ahb/ahb_agent_pkg.sv(251) @ 276000: uvm_test_top.env.ahb_agnt.mon [AHB_MON] Captured: TXN: AHB_READ addr=0x00000010 data=0x00000000 trans=HTRANS_NONSEQ resp=HRESP_OKAY delay=0
# UVM_INFO ../tb/agent_apb/apb_agent_pkg.sv(123) @ 285000: uvm_test_top.env.apb_agnt.mon [APB_MON] Captured: TXN: AHB_READ addr=0x00000010 data=0x00000000 trans=HTRANS_NONSEQ resp=HRESP_OKAY delay=0
# [TOP MON] t=285000 psel=1 penable=1 paddr=0x00000010 pwdata=0x00000000
# UVM_INFO ../tb/env/bridge_env_pkg.sv(85) @ 285000: uvm_test_top.env.scoreboard [SBOARD] [PASS] AHB_READ addr=0x00000010 data=0x00000000
# [TOP MON] t=315000 psel=1 penable=0 paddr=0x00000014 pwdata=0x00000000
# UVM_INFO ../tb/agent_ahb/ahb_agent_pkg.sv(251) @ 316000: uvm_test_top.env.ahb_agnt.mon [AHB_MON] Captured: TXN: AHB_READ addr=0x00000014 data=0xffffffff trans=HTRANS_NONSEQ resp=HRESP_OKAY delay=0
# UVM_INFO ../tb/agent_apb/apb_agent_pkg.sv(123) @ 325000: uvm_test_top.env.apb_agnt.mon [APB_MON] Captured: TXN: AHB_READ addr=0x00000014 data=0xffffffff trans=HTRANS_NONSEQ resp=HRESP_OKAY delay=0
# [TOP MON] t=325000 psel=1 penable=1 paddr=0x00000014 pwdata=0x00000000
# UVM_INFO ../tb/env/bridge_env_pkg.sv(85) @ 325000: uvm_test_top.env.scoreboard [SBOARD] [PASS] AHB_READ addr=0x00000014 data=0xffffffff
# [TOP MON] t=355000 psel=1 penable=0 paddr=0x00000018 pwdata=0x00000000
# UVM_INFO ../tb/agent_ahb/ahb_agent_pkg.sv(251) @ 356000: uvm_test_top.env.ahb_agnt.mon [AHB_MON] Captured: TXN: AHB_READ addr=0x00000018 data=0xaaaaaaaa trans=HTRANS_NONSEQ resp=HRESP_OKAY delay=0
# UVM_INFO ../tb/agent_apb/apb_agent_pkg.sv(123) @ 365000: uvm_test_top.env.apb_agnt.mon [APB_MON] Captured: TXN: AHB_READ addr=0x00000018 data=0xaaaaaaaa trans=HTRANS_NONSEQ resp=HRESP_OKAY delay=0
# [TOP MON] t=365000 psel=1 penable=1 paddr=0x00000018 pwdata=0x00000000
# UVM_INFO ../tb/env/bridge_env_pkg.sv(85) @ 365000: uvm_test_top.env.scoreboard [SBOARD] [PASS] AHB_READ addr=0x00000018 data=0xaaaaaaaa
# [TOP MON] t=395000 psel=1 penable=0 paddr=0x0000001c pwdata=0x00000000
# UVM_INFO ../tb/agent_ahb/ahb_agent_pkg.sv(251) @ 396000: uvm_test_top.env.ahb_agnt.mon [AHB_MON] Captured: TXN: AHB_READ addr=0x0000001c data=0x55555555 trans=HTRANS_NONSEQ resp=HRESP_OKAY delay=0
# UVM_INFO ../tb/agent_apb/apb_agent_pkg.sv(123) @ 405000: uvm_test_top.env.apb_agnt.mon [APB_MON] Captured: TXN: AHB_READ addr=0x0000001c data=0x55555555 trans=HTRANS_NONSEQ resp=HRESP_OKAY delay=0
# [TOP MON] t=405000 psel=1 penable=1 paddr=0x0000001c pwdata=0x00000000
# UVM_INFO ../tb/env/bridge_env_pkg.sv(85) @ 405000: uvm_test_top.env.scoreboard [SBOARD] [PASS] AHB_READ addr=0x0000001c data=0x55555555
# UVM_INFO ../tb/tests/bridge_test_pkg.sv(596) @ 410000: uvm_test_top.env.ahb_agnt.seqr@@corners [CORNERS_SEQ] Data corner cases complete
# UVM_INFO ../tb/tests/bridge_test_pkg.sv(280) @ 410000: uvm_test_top.env.ahb_agnt.seqr@@rseq [RAND_SEQ] Random sequence: count=100
# [TOP MON] t=435000 psel=1 penable=0 paddr=0x00000054 pwdata=0x00000000
# UVM_INFO ../tb/agent_ahb/ahb_agent_pkg.sv(251) @ 436000: uvm_test_top.env.ahb_agnt.mon [AHB_MON] Captured: TXN: AHB_READ addr=0x00000054 data=0xa5a50015 trans=HTRANS_NONSEQ resp=HRESP_OKAY delay=0
# UVM_INFO ../tb/agent_apb/apb_agent_pkg.sv(123) @ 445000: uvm_test_top.env.apb_agnt.mon [APB_MON] Captured: TXN: AHB_READ addr=0x00000054 data=0xa5a50015 trans=HTRANS_NONSEQ resp=HRESP_OKAY delay=0
# [TOP MON] t=445000 psel=1 penable=1 paddr=0x00000054 pwdata=0x00000000
# UVM_INFO ../tb/env/bridge_env_pkg.sv(85) @ 445000: uvm_test_top.env.scoreboard [SBOARD] [PASS] AHB_READ addr=0x00000054 data=0xa5a50015
# [TOP MON] t=515000 psel=1 penable=0 paddr=0x00000068 pwdata=0xbd93e41f
# UVM_INFO ../tb/agent_ahb/ahb_agent_pkg.sv(251) @ 516000: uvm_test_top.env.ahb_agnt.mon [AHB_MON] Captured: TXN: AHB_WRITE addr=0x00000068 data=0xbd93e41f trans=HTRANS_NONSEQ resp=HRESP_OKAY delay=0
# UVM_INFO ../tb/agent_apb/apb_agent_pkg.sv(123) @ 525000: uvm_test_top.env.apb_agnt.mon [APB_MON] Captured: TXN: AHB_WRITE addr=0x00000068 data=0xbd93e41f trans=HTRANS_NONSEQ resp=HRESP_OKAY delay=0
# [TOP MON] t=525000 psel=1 penable=1 paddr=0x00000068 pwdata=0xbd93e41f
# UVM_INFO ../tb/env/bridge_env_pkg.sv(85) @ 525000: uvm_test_top.env.scoreboard [SBOARD] [PASS] AHB_WRITE addr=0x00000068 data=0xbd93e41f
# [TOP MON] t=595000 psel=1 penable=0 paddr=0x00000088 pwdata=0x0347417c
# UVM_INFO ../tb/agent_ahb/ahb_agent_pkg.sv(251) @ 596000: uvm_test_top.env.ahb_agnt.mon [AHB_MON] Captured: TXN: AHB_WRITE addr=0x00000088 data=0x0347417c trans=HTRANS_NONSEQ resp=HRESP_OKAY delay=0
# UVM_INFO ../tb/agent_apb/apb_agent_pkg.sv(123) @ 605000: uvm_test_top.env.apb_agnt.mon [APB_MON] Captured: TXN: AHB_WRITE addr=0x00000088 data=0x0347417c trans=HTRANS_NONSEQ resp=HRESP_OKAY delay=0
# [TOP MON] t=605000 psel=1 penable=1 paddr=0x00000088 pwdata=0x0347417c
# UVM_INFO ../tb/env/bridge_env_pkg.sv(85) @ 605000: uvm_test_top.env.scoreboard [SBOARD] [PASS] AHB_WRITE addr=0x00000088 data=0x0347417c
# [TOP MON] t=725000 psel=1 penable=0 paddr=0x00000058 pwdata=0xccc90eb0
# UVM_INFO ../tb/agent_ahb/ahb_agent_pkg.sv(251) @ 726000: uvm_test_top.env.ahb_agnt.mon [AHB_MON] Captured: TXN: AHB_WRITE addr=0x00000058 data=0xccc90eb0 trans=HTRANS_NONSEQ resp=HRESP_OKAY delay=0
# UVM_INFO ../tb/agent_apb/apb_agent_pkg.sv(123) @ 735000: uvm_test_top.env.apb_agnt.mon [APB_MON] Captured: TXN: AHB_WRITE addr=0x00000058 data=0xccc90eb0 trans=HTRANS_NONSEQ resp=HRESP_OKAY delay=0
# [TOP MON] t=735000 psel=1 penable=1 paddr=0x00000058 pwdata=0xccc90eb0
# UVM_INFO ../tb/env/bridge_env_pkg.sv(85) @ 735000: uvm_test_top.env.scoreboard [SBOARD] [PASS] AHB_WRITE addr=0x00000058 data=0xccc90eb0
# [TOP MON] t=845000 psel=1 penable=0 paddr=0x00000010 pwdata=0x71d1555c
# UVM_INFO ../tb/agent_ahb/ahb_agent_pkg.sv(251) @ 846000: uvm_test_top.env.ahb_agnt.mon [AHB_MON] Captured: TXN: AHB_WRITE addr=0x00000010 data=0x71d1555c trans=HTRANS_NONSEQ resp=HRESP_OKAY delay=0
# UVM_INFO ../tb/agent_apb/apb_agent_pkg.sv(123) @ 855000: uvm_test_top.env.apb_agnt.mon [APB_MON] Captured: TXN: AHB_WRITE addr=0x00000010 data=0x71d1555c trans=HTRANS_NONSEQ resp=HRESP_OKAY delay=0
# [TOP MON] t=855000 psel=1 penable=1 paddr=0x00000010 pwdata=0x71d1555c
# UVM_INFO ../tb/env/bridge_env_pkg.sv(85) @ 855000: uvm_test_top.env.scoreboard [SBOARD] [PASS] AHB_WRITE addr=0x00000010 data=0x71d1555c
# [TOP MON] t=935000 psel=1 penable=0 paddr=0x000000ec pwdata=0x7d313ddf
# UVM_INFO ../tb/agent_ahb/ahb_agent_pkg.sv(251) @ 936000: uvm_test_top.env.ahb_agnt.mon [AHB_MON] Captured: TXN: AHB_WRITE addr=0x000000ec data=0x7d313ddf trans=HTRANS_NONSEQ resp=HRESP_OKAY delay=0
# UVM_INFO ../tb/agent_apb/apb_agent_pkg.sv(123) @ 945000: uvm_test_top.env.apb_agnt.mon [APB_MON] Captured: TXN: AHB_WRITE addr=0x000000ec data=0x7d313ddf trans=HTRANS_NONSEQ resp=HRESP_OKAY delay=0
# [TOP MON] t=945000 psel=1 penable=1 paddr=0x000000ec pwdata=0x7d313ddf
# UVM_INFO ../tb/env/bridge_env_pkg.sv(85) @ 945000: uvm_test_top.env.scoreboard [SBOARD] [PASS] AHB_WRITE addr=0x000000ec data=0x7d313ddf
# [TOP MON] t=985000 psel=1 penable=0 paddr=0x00000074 pwdata=0x9c4ad428
# UVM_INFO ../tb/agent_ahb/ahb_agent_pkg.sv(251) @ 986000: uvm_test_top.env.ahb_agnt.mon [AHB_MON] Captured: TXN: AHB_WRITE addr=0x00000074 data=0x9c4ad428 trans=HTRANS_NONSEQ resp=HRESP_OKAY delay=0
# UVM_INFO ../tb/agent_apb/apb_agent_pkg.sv(123) @ 995000: uvm_test_top.env.apb_agnt.mon [APB_MON] Captured: TXN: AHB_WRITE addr=0x00000074 data=0x9c4ad428 trans=HTRANS_NONSEQ resp=HRESP_OKAY delay=0
# [TOP MON] t=995000 psel=1 penable=1 paddr=0x00000074 pwdata=0x9c4ad428
# UVM_INFO ../tb/env/bridge_env_pkg.sv(85) @ 995000: uvm_test_top.env.scoreboard [SBOARD] [PASS] AHB_WRITE addr=0x00000074 data=0x9c4ad428
# [TOP MON] t=1125000 psel=1 penable=0 paddr=0x00000060 pwdata=0x08e8bb16
# UVM_INFO ../tb/agent_ahb/ahb_agent_pkg.sv(251) @ 1126000: uvm_test_top.env.ahb_agnt.mon [AHB_MON] Captured: TXN: AHB_WRITE addr=0x00000060 data=0x08e8bb16 trans=HTRANS_NONSEQ resp=HRESP_OKAY delay=0
# UVM_INFO ../tb/agent_apb/apb_agent_pkg.sv(123) @ 1135000: uvm_test_top.env.apb_agnt.mon [APB_MON] Captured: TXN: AHB_WRITE addr=0x00000060 data=0x08e8bb16 trans=HTRANS_NONSEQ resp=HRESP_OKAY delay=0
# [TOP MON] t=1135000 psel=1 penable=1 paddr=0x00000060 pwdata=0x08e8bb16
# UVM_INFO ../tb/env/bridge_env_pkg.sv(85) @ 1135000: uvm_test_top.env.scoreboard [SBOARD] [PASS] AHB_WRITE addr=0x00000060 data=0x08e8bb16
# [TOP MON] t=1175000 psel=1 penable=0 paddr=0x00000050 pwdata=0xe2e4c8da
# UVM_INFO ../tb/agent_ahb/ahb_agent_pkg.sv(251) @ 1176000: uvm_test_top.env.ahb_agnt.mon [AHB_MON] Captured: TXN: AHB_WRITE addr=0x00000050 data=0xe2e4c8da trans=HTRANS_NONSEQ resp=HRESP_OKAY delay=0
# UVM_INFO ../tb/agent_apb/apb_agent_pkg.sv(123) @ 1185000: uvm_test_top.env.apb_agnt.mon [APB_MON] Captured: TXN: AHB_WRITE addr=0x00000050 data=0xe2e4c8da trans=HTRANS_NONSEQ resp=HRESP_OKAY delay=0
# [TOP MON] t=1185000 psel=1 penable=1 paddr=0x00000050 pwdata=0xe2e4c8da
# UVM_INFO ../tb/env/bridge_env_pkg.sv(85) @ 1185000: uvm_test_top.env.scoreboard [SBOARD] [PASS] AHB_WRITE addr=0x00000050 data=0xe2e4c8da
# [TOP MON] t=1315000 psel=1 penable=0 paddr=0x000000c0 pwdata=0xf054afbb
# UVM_INFO ../tb/agent_ahb/ahb_agent_pkg.sv(251) @ 1316000: uvm_test_top.env.ahb_agnt.mon [AHB_MON] Captured: TXN: AHB_WRITE addr=0x000000c0 data=0xf054afbb trans=HTRANS_NONSEQ resp=HRESP_OKAY delay=0
# UVM_INFO ../tb/agent_apb/apb_agent_pkg.sv(123) @ 1325000: uvm_test_top.env.apb_agnt.mon [APB_MON] Captured: TXN: AHB_WRITE addr=0x000000c0 data=0xf054afbb trans=HTRANS_NONSEQ resp=HRESP_OKAY delay=0
# [TOP MON] t=1325000 psel=1 penable=1 paddr=0x000000c0 pwdata=0xf054afbb
# UVM_INFO ../tb/env/bridge_env_pkg.sv(85) @ 1325000: uvm_test_top.env.scoreboard [SBOARD] [PASS] AHB_WRITE addr=0x000000c0 data=0xf054afbb
# [TOP MON] t=1385000 psel=1 penable=0 paddr=0x000000bc pwdata=0x4a3c5f54
# UVM_INFO ../tb/agent_ahb/ahb_agent_pkg.sv(251) @ 1386000: uvm_test_top.env.ahb_agnt.mon [AHB_MON] Captured: TXN: AHB_WRITE addr=0x000000bc data=0x4a3c5f54 trans=HTRANS_NONSEQ resp=HRESP_OKAY delay=0
# UVM_INFO ../tb/agent_apb/apb_agent_pkg.sv(123) @ 1395000: uvm_test_top.env.apb_agnt.mon [APB_MON] Captured: TXN: AHB_WRITE addr=0x000000bc data=0x4a3c5f54 trans=HTRANS_NONSEQ resp=HRESP_OKAY delay=0
# [TOP MON] t=1395000 psel=1 penable=1 paddr=0x000000bc pwdata=0x4a3c5f54
# UVM_INFO ../tb/env/bridge_env_pkg.sv(85) @ 1395000: uvm_test_top.env.scoreboard [SBOARD] [PASS] AHB_WRITE addr=0x000000bc data=0x4a3c5f54
# [TOP MON] t=1515000 psel=1 penable=0 paddr=0x000000cc pwdata=0x00000000
# UVM_INFO ../tb/agent_ahb/ahb_agent_pkg.sv(251) @ 1516000: uvm_test_top.env.ahb_agnt.mon [AHB_MON] Captured: TXN: AHB_READ addr=0x000000cc data=0xa5a50033 trans=HTRANS_NONSEQ resp=HRESP_OKAY delay=0
# UVM_INFO ../tb/agent_apb/apb_agent_pkg.sv(123) @ 1525000: uvm_test_top.env.apb_agnt.mon [APB_MON] Captured: TXN: AHB_READ addr=0x000000cc data=0xa5a50033 trans=HTRANS_NONSEQ resp=HRESP_OKAY delay=0
# [TOP MON] t=1525000 psel=1 penable=1 paddr=0x000000cc pwdata=0x00000000
# UVM_INFO ../tb/env/bridge_env_pkg.sv(85) @ 1525000: uvm_test_top.env.scoreboard [SBOARD] [PASS] AHB_READ addr=0x000000cc data=0xa5a50033
# [TOP MON] t=1585000 psel=1 penable=0 paddr=0x0000005c pwdata=0x00000000
# UVM_INFO ../tb/agent_ahb/ahb_agent_pkg.sv(251) @ 1586000: uvm_test_top.env.ahb_agnt.mon [AHB_MON] Captured: TXN: AHB_READ addr=0x0000005c data=0xa5a50017 trans=HTRANS_NONSEQ resp=HRESP_OKAY delay=0
# UVM_INFO ../tb/agent_apb/apb_agent_pkg.sv(123) @ 1595000: uvm_test_top.env.apb_agnt.mon [APB_MON] Captured: TXN: AHB_READ addr=0x0000005c data=0xa5a50017 trans=HTRANS_NONSEQ resp=HRESP_OKAY delay=0
# [TOP MON] t=1595000 psel=1 penable=1 paddr=0x0000005c pwdata=0x00000000
# UVM_INFO ../tb/env/bridge_env_pkg.sv(85) @ 1595000: uvm_test_top.env.scoreboard [SBOARD] [PASS] AHB_READ addr=0x0000005c data=0xa5a50017
# [TOP MON] t=1625000 psel=1 penable=0 paddr=0x00000008 pwdata=0x00000000
# UVM_INFO ../tb/agent_ahb/ahb_agent_pkg.sv(251) @ 1626000: uvm_test_top.env.ahb_agnt.mon [AHB_MON] Captured: TXN: AHB_READ addr=0x00000008 data=0xa5a50002 trans=HTRANS_NONSEQ resp=HRESP_OKAY delay=0
# UVM_INFO ../tb/agent_apb/apb_agent_pkg.sv(123) @ 1635000: uvm_test_top.env.apb_agnt.mon [APB_MON] Captured: TXN: AHB_READ addr=0x00000008 data=0xa5a50002 trans=HTRANS_NONSEQ resp=HRESP_OKAY delay=0
# [TOP MON] t=1635000 psel=1 penable=1 paddr=0x00000008 pwdata=0x00000000
# UVM_INFO ../tb/env/bridge_env_pkg.sv(85) @ 1635000: uvm_test_top.env.scoreboard [SBOARD] [PASS] AHB_READ addr=0x00000008 data=0xa5a50002
# [TOP MON] t=1695000 psel=1 penable=0 paddr=0x000000dc pwdata=0x5425ec59
# UVM_INFO ../tb/agent_ahb/ahb_agent_pkg.sv(251) @ 1696000: uvm_test_top.env.ahb_agnt.mon [AHB_MON] Captured: TXN: AHB_WRITE addr=0x000000dc data=0x5425ec59 trans=HTRANS_NONSEQ resp=HRESP_OKAY delay=0
# UVM_INFO ../tb/agent_apb/apb_agent_pkg.sv(123) @ 1705000: uvm_test_top.env.apb_agnt.mon [APB_MON] Captured: TXN: AHB_WRITE addr=0x000000dc data=0x5425ec59 trans=HTRANS_NONSEQ resp=HRESP_OKAY delay=0
# [TOP MON] t=1705000 psel=1 penable=1 paddr=0x000000dc pwdata=0x5425ec59
# UVM_INFO ../tb/env/bridge_env_pkg.sv(85) @ 1705000: uvm_test_top.env.scoreboard [SBOARD] [PASS] AHB_WRITE addr=0x000000dc data=0x5425ec59
# [TOP MON] t=1745000 psel=1 penable=0 paddr=0x0000001c pwdata=0x00000000
# UVM_INFO ../tb/agent_ahb/ahb_agent_pkg.sv(251) @ 1746000: uvm_test_top.env.ahb_agnt.mon [AHB_MON] Captured: TXN: AHB_READ addr=0x0000001c data=0x55555555 trans=HTRANS_NONSEQ resp=HRESP_OKAY delay=0
# UVM_INFO ../tb/agent_apb/apb_agent_pkg.sv(123) @ 1755000: uvm_test_top.env.apb_agnt.mon [APB_MON] Captured: TXN: AHB_READ addr=0x0000001c data=0x55555555 trans=HTRANS_NONSEQ resp=HRESP_OKAY delay=0
# [TOP MON] t=1755000 psel=1 penable=1 paddr=0x0000001c pwdata=0x00000000
# UVM_INFO ../tb/env/bridge_env_pkg.sv(85) @ 1755000: uvm_test_top.env.scoreboard [SBOARD] [PASS] AHB_READ addr=0x0000001c data=0x55555555
# [TOP MON] t=1865000 psel=1 penable=0 paddr=0x00000020 pwdata=0xd8092d1a
# UVM_INFO ../tb/agent_ahb/ahb_agent_pkg.sv(251) @ 1866000: uvm_test_top.env.ahb_agnt.mon [AHB_MON] Captured: TXN: AHB_WRITE addr=0x00000020 data=0xd8092d1a trans=HTRANS_NONSEQ resp=HRESP_OKAY delay=0
# UVM_INFO ../tb/agent_apb/apb_agent_pkg.sv(123) @ 1875000: uvm_test_top.env.apb_agnt.mon [APB_MON] Captured: TXN: AHB_WRITE addr=0x00000020 data=0xd8092d1a trans=HTRANS_NONSEQ resp=HRESP_OKAY delay=0
# [TOP MON] t=1875000 psel=1 penable=1 paddr=0x00000020 pwdata=0xd8092d1a
# UVM_INFO ../tb/env/bridge_env_pkg.sv(85) @ 1875000: uvm_test_top.env.scoreboard [SBOARD] [PASS] AHB_WRITE addr=0x00000020 data=0xd8092d1a
# [TOP MON] t=1925000 psel=1 penable=0 paddr=0x00000078 pwdata=0x00000000
# UVM_INFO ../tb/agent_ahb/ahb_agent_pkg.sv(251) @ 1926000: uvm_test_top.env.ahb_agnt.mon [AHB_MON] Captured: TXN: AHB_READ addr=0x00000078 data=0xa5a5001e trans=HTRANS_NONSEQ resp=HRESP_OKAY delay=0
# UVM_INFO ../tb/agent_apb/apb_agent_pkg.sv(123) @ 1935000: uvm_test_top.env.apb_agnt.mon [APB_MON] Captured: TXN: AHB_READ addr=0x00000078 data=0xa5a5001e trans=HTRANS_NONSEQ resp=HRESP_OKAY delay=0
# [TOP MON] t=1935000 psel=1 penable=1 paddr=0x00000078 pwdata=0x00000000
# UVM_INFO ../tb/env/bridge_env_pkg.sv(85) @ 1935000: uvm_test_top.env.scoreboard [SBOARD] [PASS] AHB_READ addr=0x00000078 data=0xa5a5001e
# [TOP MON] t=1995000 psel=1 penable=0 paddr=0x0000006c pwdata=0xef9a8ac9
# UVM_INFO ../tb/agent_ahb/ahb_agent_pkg.sv(251) @ 1996000: uvm_test_top.env.ahb_agnt.mon [AHB_MON] Captured: TXN: AHB_WRITE addr=0x0000006c data=0xef9a8ac9 trans=HTRANS_NONSEQ resp=HRESP_OKAY delay=0
# UVM_INFO ../tb/agent_apb/apb_agent_pkg.sv(123) @ 2005000: uvm_test_top.env.apb_agnt.mon [APB_MON] Captured: TXN: AHB_WRITE addr=0x0000006c data=0xef9a8ac9 trans=HTRANS_NONSEQ resp=HRESP_OKAY delay=0
# [TOP MON] t=2005000 psel=1 penable=1 paddr=0x0000006c pwdata=0xef9a8ac9
# UVM_INFO ../tb/env/bridge_env_pkg.sv(85) @ 2005000: uvm_test_top.env.scoreboard [SBOARD] [PASS] AHB_WRITE addr=0x0000006c data=0xef9a8ac9
# [TOP MON] t=2035000 psel=1 penable=0 paddr=0x000000a8 pwdata=0x00000000
